%YAML 1.1
%TAG !u! tag:unity3d.com,2011:
--- !u!29 &1
OcclusionCullingSettings:
  m_ObjectHideFlags: 0
  serializedVersion: 2
  m_OcclusionBakeSettings:
    smallestOccluder: 5
    smallestHole: 0.25
    backfaceThreshold: 100
  m_SceneGUID: 00000000000000000000000000000000
  m_OcclusionCullingData: {fileID: 0}
--- !u!104 &2
RenderSettings:
  m_ObjectHideFlags: 0
  serializedVersion: 8
  m_Fog: 0
  m_FogColor: {r: 0.5, g: 0.5, b: 0.5, a: 1}
  m_FogMode: 3
  m_FogDensity: 0.01
  m_LinearFogStart: 0
  m_LinearFogEnd: 300
  m_AmbientSkyColor: {r: 0.212, g: 0.227, b: 0.259, a: 1}
  m_AmbientEquatorColor: {r: 0.114, g: 0.125, b: 0.133, a: 1}
  m_AmbientGroundColor: {r: 0.047, g: 0.043, b: 0.035, a: 1}
  m_AmbientIntensity: 1
  m_AmbientMode: 3
  m_SubtractiveShadowColor: {r: 0.42, g: 0.478, b: 0.627, a: 1}
  m_SkyboxMaterial: {fileID: 0}
  m_HaloStrength: 0.5
  m_FlareStrength: 1
  m_FlareFadeSpeed: 3
  m_HaloTexture: {fileID: 0}
  m_SpotCookie: {fileID: 10001, guid: 0000000000000000e000000000000000, type: 0}
  m_DefaultReflectionMode: 0
  m_DefaultReflectionResolution: 128
  m_ReflectionBounces: 1
  m_ReflectionIntensity: 1
  m_CustomReflection: {fileID: 0}
  m_Sun: {fileID: 0}
  m_IndirectSpecularColor: {r: 0, g: 0, b: 0, a: 1}
--- !u!157 &3
LightmapSettings:
  m_ObjectHideFlags: 0
  serializedVersion: 11
  m_GIWorkflowMode: 1
  m_GISettings:
    serializedVersion: 2
    m_BounceScale: 1
    m_IndirectOutputScale: 1
    m_AlbedoBoost: 1
    m_TemporalCoherenceThreshold: 1
    m_EnvironmentLightingMode: 0
    m_EnableBakedLightmaps: 0
    m_EnableRealtimeLightmaps: 0
  m_LightmapEditorSettings:
    serializedVersion: 9
    m_Resolution: 2
    m_BakeResolution: 40
    m_TextureWidth: 1024
    m_TextureHeight: 1024
    m_AO: 0
    m_AOMaxDistance: 1
    m_CompAOExponent: 1
    m_CompAOExponentDirect: 0
    m_Padding: 2
    m_LightmapParameters: {fileID: 0}
    m_LightmapsBakeMode: 1
    m_TextureCompression: 1
    m_FinalGather: 0
    m_FinalGatherFiltering: 1
    m_FinalGatherRayCount: 256
    m_ReflectionCompression: 2
    m_MixedBakeMode: 2
    m_BakeBackend: 0
    m_PVRSampling: 1
    m_PVRDirectSampleCount: 32
    m_PVRSampleCount: 500
    m_PVRBounces: 2
    m_PVRFilterTypeDirect: 0
    m_PVRFilterTypeIndirect: 0
    m_PVRFilterTypeAO: 0
    m_PVRFilteringMode: 1
    m_PVRCulling: 1
    m_PVRFilteringGaussRadiusDirect: 1
    m_PVRFilteringGaussRadiusIndirect: 5
    m_PVRFilteringGaussRadiusAO: 2
    m_PVRFilteringAtrousPositionSigmaDirect: 0.5
    m_PVRFilteringAtrousPositionSigmaIndirect: 2
    m_PVRFilteringAtrousPositionSigmaAO: 1
    m_ShowResolutionOverlay: 1
  m_LightingDataAsset: {fileID: 0}
  m_UseShadowmask: 1
--- !u!196 &4
NavMeshSettings:
  serializedVersion: 2
  m_ObjectHideFlags: 0
  m_BuildSettings:
    serializedVersion: 2
    agentTypeID: 0
    agentRadius: 0.5
    agentHeight: 2
    agentSlope: 45
    agentClimb: 0.4
    ledgeDropHeight: 0
    maxJumpAcrossDistance: 0
    minRegionArea: 2
    manualCellSize: 0
    cellSize: 0.16666667
    manualTileSize: 0
    tileSize: 256
    accuratePlacement: 0
    debug:
      m_Flags: 0
  m_NavMeshData: {fileID: 0}
--- !u!1001 &226170286
Prefab:
  m_ObjectHideFlags: 0
  serializedVersion: 2
  m_Modification:
    m_TransformParent: {fileID: 0}
    m_Modifications:
    - target: {fileID: 4630888335494662, guid: 0bd5fd9da8d44d941ad0249b408bebe5, type: 2}
      propertyPath: m_LocalPosition.x
      value: 0
      objectReference: {fileID: 0}
    - target: {fileID: 4630888335494662, guid: 0bd5fd9da8d44d941ad0249b408bebe5, type: 2}
      propertyPath: m_LocalPosition.y
      value: 0
      objectReference: {fileID: 0}
    - target: {fileID: 4630888335494662, guid: 0bd5fd9da8d44d941ad0249b408bebe5, type: 2}
      propertyPath: m_LocalPosition.z
      value: 0
      objectReference: {fileID: 0}
    - target: {fileID: 4630888335494662, guid: 0bd5fd9da8d44d941ad0249b408bebe5, type: 2}
      propertyPath: m_LocalRotation.x
      value: 0
      objectReference: {fileID: 0}
    - target: {fileID: 4630888335494662, guid: 0bd5fd9da8d44d941ad0249b408bebe5, type: 2}
      propertyPath: m_LocalRotation.y
      value: 0
      objectReference: {fileID: 0}
    - target: {fileID: 4630888335494662, guid: 0bd5fd9da8d44d941ad0249b408bebe5, type: 2}
      propertyPath: m_LocalRotation.z
      value: 0
      objectReference: {fileID: 0}
    - target: {fileID: 4630888335494662, guid: 0bd5fd9da8d44d941ad0249b408bebe5, type: 2}
      propertyPath: m_LocalRotation.w
      value: 1
      objectReference: {fileID: 0}
    - target: {fileID: 4630888335494662, guid: 0bd5fd9da8d44d941ad0249b408bebe5, type: 2}
      propertyPath: m_RootOrder
      value: 6
      objectReference: {fileID: 0}
    m_RemovedComponents: []
  m_ParentPrefab: {fileID: 100100000, guid: 0bd5fd9da8d44d941ad0249b408bebe5, type: 2}
  m_IsPrefabParent: 0
--- !u!1001 &327947742
Prefab:
  m_ObjectHideFlags: 0
  serializedVersion: 2
  m_Modification:
    m_TransformParent: {fileID: 0}
    m_Modifications:
    - target: {fileID: 4169934667913836, guid: 7bd9fa3c367a80f4db4724e68dd3bfa2, type: 2}
      propertyPath: m_LocalPosition.x
      value: 83.6
      objectReference: {fileID: 0}
    - target: {fileID: 4169934667913836, guid: 7bd9fa3c367a80f4db4724e68dd3bfa2, type: 2}
      propertyPath: m_LocalPosition.y
      value: 6
      objectReference: {fileID: 0}
    - target: {fileID: 4169934667913836, guid: 7bd9fa3c367a80f4db4724e68dd3bfa2, type: 2}
      propertyPath: m_LocalPosition.z
      value: 0
      objectReference: {fileID: 0}
    - target: {fileID: 4169934667913836, guid: 7bd9fa3c367a80f4db4724e68dd3bfa2, type: 2}
      propertyPath: m_LocalRotation.x
      value: 0
      objectReference: {fileID: 0}
    - target: {fileID: 4169934667913836, guid: 7bd9fa3c367a80f4db4724e68dd3bfa2, type: 2}
      propertyPath: m_LocalRotation.y
      value: 0
      objectReference: {fileID: 0}
    - target: {fileID: 4169934667913836, guid: 7bd9fa3c367a80f4db4724e68dd3bfa2, type: 2}
      propertyPath: m_LocalRotation.z
      value: 1
      objectReference: {fileID: 0}
    - target: {fileID: 4169934667913836, guid: 7bd9fa3c367a80f4db4724e68dd3bfa2, type: 2}
      propertyPath: m_LocalRotation.w
      value: 0
      objectReference: {fileID: 0}
    - target: {fileID: 4169934667913836, guid: 7bd9fa3c367a80f4db4724e68dd3bfa2, type: 2}
      propertyPath: m_RootOrder
      value: 19
      objectReference: {fileID: 0}
    - target: {fileID: 4169934667913836, guid: 7bd9fa3c367a80f4db4724e68dd3bfa2, type: 2}
      propertyPath: m_LocalScale.x
      value: 2.335584
      objectReference: {fileID: 0}
    - target: {fileID: 1321627511582884, guid: 7bd9fa3c367a80f4db4724e68dd3bfa2, type: 2}
      propertyPath: m_Name
      value: plank_long (4)
      objectReference: {fileID: 0}
    - target: {fileID: 4169934667913836, guid: 7bd9fa3c367a80f4db4724e68dd3bfa2, type: 2}
      propertyPath: m_LocalEulerAnglesHint.z
      value: 180
      objectReference: {fileID: 0}
    m_RemovedComponents: []
  m_ParentPrefab: {fileID: 100100000, guid: 7bd9fa3c367a80f4db4724e68dd3bfa2, type: 2}
  m_IsPrefabParent: 0
--- !u!1001 &410706942
Prefab:
  m_ObjectHideFlags: 0
  serializedVersion: 2
  m_Modification:
    m_TransformParent: {fileID: 0}
    m_Modifications:
    - target: {fileID: 224015993560192712, guid: 0b724a29602625f4b9282b0b3a5e5363,
        type: 2}
      propertyPath: m_LocalPosition.x
      value: 0
      objectReference: {fileID: 0}
    - target: {fileID: 224015993560192712, guid: 0b724a29602625f4b9282b0b3a5e5363,
        type: 2}
      propertyPath: m_LocalPosition.y
      value: 0
      objectReference: {fileID: 0}
    - target: {fileID: 224015993560192712, guid: 0b724a29602625f4b9282b0b3a5e5363,
        type: 2}
      propertyPath: m_LocalPosition.z
      value: 0
      objectReference: {fileID: 0}
    - target: {fileID: 224015993560192712, guid: 0b724a29602625f4b9282b0b3a5e5363,
        type: 2}
      propertyPath: m_LocalRotation.x
      value: 0
      objectReference: {fileID: 0}
    - target: {fileID: 224015993560192712, guid: 0b724a29602625f4b9282b0b3a5e5363,
        type: 2}
      propertyPath: m_LocalRotation.y
      value: 0
      objectReference: {fileID: 0}
    - target: {fileID: 224015993560192712, guid: 0b724a29602625f4b9282b0b3a5e5363,
        type: 2}
      propertyPath: m_LocalRotation.z
      value: 0
      objectReference: {fileID: 0}
    - target: {fileID: 224015993560192712, guid: 0b724a29602625f4b9282b0b3a5e5363,
        type: 2}
      propertyPath: m_LocalRotation.w
      value: 1
      objectReference: {fileID: 0}
    - target: {fileID: 224015993560192712, guid: 0b724a29602625f4b9282b0b3a5e5363,
        type: 2}
      propertyPath: m_RootOrder
      value: 7
      objectReference: {fileID: 0}
    - target: {fileID: 224015993560192712, guid: 0b724a29602625f4b9282b0b3a5e5363,
        type: 2}
      propertyPath: m_AnchoredPosition.x
      value: 0
      objectReference: {fileID: 0}
    - target: {fileID: 224015993560192712, guid: 0b724a29602625f4b9282b0b3a5e5363,
        type: 2}
      propertyPath: m_AnchoredPosition.y
      value: 0
      objectReference: {fileID: 0}
    - target: {fileID: 224015993560192712, guid: 0b724a29602625f4b9282b0b3a5e5363,
        type: 2}
      propertyPath: m_SizeDelta.x
      value: 0
      objectReference: {fileID: 0}
    - target: {fileID: 224015993560192712, guid: 0b724a29602625f4b9282b0b3a5e5363,
        type: 2}
      propertyPath: m_SizeDelta.y
      value: 0
      objectReference: {fileID: 0}
    - target: {fileID: 224015993560192712, guid: 0b724a29602625f4b9282b0b3a5e5363,
        type: 2}
      propertyPath: m_AnchorMin.x
      value: 0
      objectReference: {fileID: 0}
    - target: {fileID: 224015993560192712, guid: 0b724a29602625f4b9282b0b3a5e5363,
        type: 2}
      propertyPath: m_AnchorMin.y
      value: 0
      objectReference: {fileID: 0}
    - target: {fileID: 224015993560192712, guid: 0b724a29602625f4b9282b0b3a5e5363,
        type: 2}
      propertyPath: m_AnchorMax.x
      value: 0
      objectReference: {fileID: 0}
    - target: {fileID: 224015993560192712, guid: 0b724a29602625f4b9282b0b3a5e5363,
        type: 2}
      propertyPath: m_AnchorMax.y
      value: 0
      objectReference: {fileID: 0}
    - target: {fileID: 224015993560192712, guid: 0b724a29602625f4b9282b0b3a5e5363,
        type: 2}
      propertyPath: m_Pivot.x
      value: 0
      objectReference: {fileID: 0}
    - target: {fileID: 224015993560192712, guid: 0b724a29602625f4b9282b0b3a5e5363,
        type: 2}
      propertyPath: m_Pivot.y
      value: 0
      objectReference: {fileID: 0}
    - target: {fileID: 114757405950740534, guid: 0b724a29602625f4b9282b0b3a5e5363,
        type: 2}
      propertyPath: Victory
      value: 
      objectReference: {fileID: 0}
    - target: {fileID: 114757405950740534, guid: 0b724a29602625f4b9282b0b3a5e5363,
        type: 2}
      propertyPath: MusicAudio
      value: 
      objectReference: {fileID: 1255666374}
    m_RemovedComponents: []
  m_ParentPrefab: {fileID: 100100000, guid: 0b724a29602625f4b9282b0b3a5e5363, type: 2}
  m_IsPrefabParent: 0
--- !u!1 &410706943 stripped
GameObject:
  m_PrefabParentObject: {fileID: 1365337679995470, guid: 0b724a29602625f4b9282b0b3a5e5363,
    type: 2}
  m_PrefabInternal: {fileID: 410706942}
--- !u!1001 &471764477
Prefab:
  m_ObjectHideFlags: 0
  serializedVersion: 2
  m_Modification:
    m_TransformParent: {fileID: 0}
    m_Modifications:
    - target: {fileID: 4169934667913836, guid: 7bd9fa3c367a80f4db4724e68dd3bfa2, type: 2}
      propertyPath: m_LocalPosition.x
      value: -81.5
      objectReference: {fileID: 0}
    - target: {fileID: 4169934667913836, guid: 7bd9fa3c367a80f4db4724e68dd3bfa2, type: 2}
      propertyPath: m_LocalPosition.y
      value: -57.1
      objectReference: {fileID: 0}
    - target: {fileID: 4169934667913836, guid: 7bd9fa3c367a80f4db4724e68dd3bfa2, type: 2}
      propertyPath: m_LocalPosition.z
      value: 0
      objectReference: {fileID: 0}
    - target: {fileID: 4169934667913836, guid: 7bd9fa3c367a80f4db4724e68dd3bfa2, type: 2}
      propertyPath: m_LocalRotation.x
      value: 0
      objectReference: {fileID: 0}
    - target: {fileID: 4169934667913836, guid: 7bd9fa3c367a80f4db4724e68dd3bfa2, type: 2}
      propertyPath: m_LocalRotation.y
      value: 0
      objectReference: {fileID: 0}
    - target: {fileID: 4169934667913836, guid: 7bd9fa3c367a80f4db4724e68dd3bfa2, type: 2}
      propertyPath: m_LocalRotation.z
      value: 0
      objectReference: {fileID: 0}
    - target: {fileID: 4169934667913836, guid: 7bd9fa3c367a80f4db4724e68dd3bfa2, type: 2}
      propertyPath: m_LocalRotation.w
      value: 1
      objectReference: {fileID: 0}
    - target: {fileID: 4169934667913836, guid: 7bd9fa3c367a80f4db4724e68dd3bfa2, type: 2}
      propertyPath: m_RootOrder
      value: 18
      objectReference: {fileID: 0}
    - target: {fileID: 4169934667913836, guid: 7bd9fa3c367a80f4db4724e68dd3bfa2, type: 2}
      propertyPath: m_LocalScale.x
      value: 2.335584
      objectReference: {fileID: 0}
    - target: {fileID: 1321627511582884, guid: 7bd9fa3c367a80f4db4724e68dd3bfa2, type: 2}
      propertyPath: m_Name
      value: plank_long (2)
      objectReference: {fileID: 0}
    m_RemovedComponents: []
  m_ParentPrefab: {fileID: 100100000, guid: 7bd9fa3c367a80f4db4724e68dd3bfa2, type: 2}
  m_IsPrefabParent: 0
--- !u!1001 &476160314
Prefab:
  m_ObjectHideFlags: 0
  serializedVersion: 2
  m_Modification:
    m_TransformParent: {fileID: 0}
    m_Modifications:
    - target: {fileID: 4169934667913836, guid: 7bd9fa3c367a80f4db4724e68dd3bfa2, type: 2}
      propertyPath: m_LocalPosition.x
      value: 83.7
      objectReference: {fileID: 0}
    - target: {fileID: 4169934667913836, guid: 7bd9fa3c367a80f4db4724e68dd3bfa2, type: 2}
      propertyPath: m_LocalPosition.y
      value: -57.7
      objectReference: {fileID: 0}
    - target: {fileID: 4169934667913836, guid: 7bd9fa3c367a80f4db4724e68dd3bfa2, type: 2}
      propertyPath: m_LocalPosition.z
      value: 0
      objectReference: {fileID: 0}
    - target: {fileID: 4169934667913836, guid: 7bd9fa3c367a80f4db4724e68dd3bfa2, type: 2}
      propertyPath: m_LocalRotation.x
      value: 0
      objectReference: {fileID: 0}
    - target: {fileID: 4169934667913836, guid: 7bd9fa3c367a80f4db4724e68dd3bfa2, type: 2}
      propertyPath: m_LocalRotation.y
      value: 0
      objectReference: {fileID: 0}
    - target: {fileID: 4169934667913836, guid: 7bd9fa3c367a80f4db4724e68dd3bfa2, type: 2}
      propertyPath: m_LocalRotation.z
      value: 0
      objectReference: {fileID: 0}
    - target: {fileID: 4169934667913836, guid: 7bd9fa3c367a80f4db4724e68dd3bfa2, type: 2}
      propertyPath: m_LocalRotation.w
      value: 1
      objectReference: {fileID: 0}
    - target: {fileID: 4169934667913836, guid: 7bd9fa3c367a80f4db4724e68dd3bfa2, type: 2}
      propertyPath: m_RootOrder
      value: 20
      objectReference: {fileID: 0}
    - target: {fileID: 4169934667913836, guid: 7bd9fa3c367a80f4db4724e68dd3bfa2, type: 2}
      propertyPath: m_LocalScale.x
      value: 2.335584
      objectReference: {fileID: 0}
    - target: {fileID: 1321627511582884, guid: 7bd9fa3c367a80f4db4724e68dd3bfa2, type: 2}
      propertyPath: m_Name
      value: plank_long (5)
      objectReference: {fileID: 0}
    m_RemovedComponents: []
  m_ParentPrefab: {fileID: 100100000, guid: 7bd9fa3c367a80f4db4724e68dd3bfa2, type: 2}
  m_IsPrefabParent: 0
--- !u!1001 &596089504
Prefab:
  m_ObjectHideFlags: 0
  serializedVersion: 2
  m_Modification:
    m_TransformParent: {fileID: 0}
    m_Modifications:
    - target: {fileID: 4008134824265050, guid: 5dc5e750cf268434b844186466a552cf, type: 2}
      propertyPath: m_LocalPosition.x
      value: 73.384
      objectReference: {fileID: 0}
    - target: {fileID: 4008134824265050, guid: 5dc5e750cf268434b844186466a552cf, type: 2}
      propertyPath: m_LocalPosition.y
      value: 5.86
      objectReference: {fileID: 0}
    - target: {fileID: 4008134824265050, guid: 5dc5e750cf268434b844186466a552cf, type: 2}
      propertyPath: m_LocalPosition.z
      value: 0
      objectReference: {fileID: 0}
    - target: {fileID: 4008134824265050, guid: 5dc5e750cf268434b844186466a552cf, type: 2}
      propertyPath: m_LocalRotation.x
      value: 0
      objectReference: {fileID: 0}
    - target: {fileID: 4008134824265050, guid: 5dc5e750cf268434b844186466a552cf, type: 2}
      propertyPath: m_LocalRotation.y
      value: 0
      objectReference: {fileID: 0}
    - target: {fileID: 4008134824265050, guid: 5dc5e750cf268434b844186466a552cf, type: 2}
      propertyPath: m_LocalRotation.z
      value: 0.7071068
      objectReference: {fileID: 0}
    - target: {fileID: 4008134824265050, guid: 5dc5e750cf268434b844186466a552cf, type: 2}
      propertyPath: m_LocalRotation.w
      value: 0.7071068
      objectReference: {fileID: 0}
    - target: {fileID: 4008134824265050, guid: 5dc5e750cf268434b844186466a552cf, type: 2}
      propertyPath: m_RootOrder
      value: 1
      objectReference: {fileID: 0}
    - target: {fileID: 1262576074628054, guid: 5dc5e750cf268434b844186466a552cf, type: 2}
      propertyPath: m_Name
      value: plank_normal_horizontal (1)
      objectReference: {fileID: 0}
    - target: {fileID: 4008134824265050, guid: 5dc5e750cf268434b844186466a552cf, type: 2}
      propertyPath: m_LocalScale.y
      value: 0.6198208
      objectReference: {fileID: 0}
    m_RemovedComponents: []
  m_ParentPrefab: {fileID: 100100000, guid: 5dc5e750cf268434b844186466a552cf, type: 2}
  m_IsPrefabParent: 0
--- !u!1001 &598701735
Prefab:
  m_ObjectHideFlags: 0
  serializedVersion: 2
  m_Modification:
    m_TransformParent: {fileID: 0}
    m_Modifications:
    - target: {fileID: 4480740978086640, guid: 340610dad96c3b14683e7c3db1132410, type: 2}
      propertyPath: m_LocalPosition.x
      value: -0.7000046
      objectReference: {fileID: 0}
    - target: {fileID: 4480740978086640, guid: 340610dad96c3b14683e7c3db1132410, type: 2}
      propertyPath: m_LocalPosition.y
      value: -45.100002
      objectReference: {fileID: 0}
    - target: {fileID: 4480740978086640, guid: 340610dad96c3b14683e7c3db1132410, type: 2}
      propertyPath: m_LocalPosition.z
      value: 0
      objectReference: {fileID: 0}
    - target: {fileID: 4480740978086640, guid: 340610dad96c3b14683e7c3db1132410, type: 2}
      propertyPath: m_LocalRotation.x
      value: 0
      objectReference: {fileID: 0}
    - target: {fileID: 4480740978086640, guid: 340610dad96c3b14683e7c3db1132410, type: 2}
      propertyPath: m_LocalRotation.y
      value: 0
      objectReference: {fileID: 0}
    - target: {fileID: 4480740978086640, guid: 340610dad96c3b14683e7c3db1132410, type: 2}
      propertyPath: m_LocalRotation.z
      value: 0
      objectReference: {fileID: 0}
    - target: {fileID: 4480740978086640, guid: 340610dad96c3b14683e7c3db1132410, type: 2}
      propertyPath: m_LocalRotation.w
      value: 1
      objectReference: {fileID: 0}
    - target: {fileID: 4480740978086640, guid: 340610dad96c3b14683e7c3db1132410, type: 2}
      propertyPath: m_RootOrder
      value: 9
      objectReference: {fileID: 0}
    - target: {fileID: 82642358643517406, guid: 340610dad96c3b14683e7c3db1132410,
        type: 2}
      propertyPath: spreadCustomCurve.m_RotationOrder
      value: 0
      objectReference: {fileID: 0}
    - target: {fileID: 1033750289920412, guid: 340610dad96c3b14683e7c3db1132410, type: 2}
      propertyPath: m_Name
      value: Destroyable (1)
      objectReference: {fileID: 0}
    m_RemovedComponents: []
  m_ParentPrefab: {fileID: 100100000, guid: 340610dad96c3b14683e7c3db1132410, type: 2}
  m_IsPrefabParent: 0
--- !u!1001 &653781164
Prefab:
  m_ObjectHideFlags: 0
  serializedVersion: 2
  m_Modification:
    m_TransformParent: {fileID: 0}
    m_Modifications:
    - target: {fileID: 4480740978086640, guid: 340610dad96c3b14683e7c3db1132410, type: 2}
      propertyPath: m_LocalPosition.x
      value: -21.9
      objectReference: {fileID: 0}
    - target: {fileID: 4480740978086640, guid: 340610dad96c3b14683e7c3db1132410, type: 2}
      propertyPath: m_LocalPosition.y
      value: -45.5
      objectReference: {fileID: 0}
    - target: {fileID: 4480740978086640, guid: 340610dad96c3b14683e7c3db1132410, type: 2}
      propertyPath: m_LocalPosition.z
      value: 0
      objectReference: {fileID: 0}
    - target: {fileID: 4480740978086640, guid: 340610dad96c3b14683e7c3db1132410, type: 2}
      propertyPath: m_LocalRotation.x
      value: 0
      objectReference: {fileID: 0}
    - target: {fileID: 4480740978086640, guid: 340610dad96c3b14683e7c3db1132410, type: 2}
      propertyPath: m_LocalRotation.y
      value: 1
      objectReference: {fileID: 0}
    - target: {fileID: 4480740978086640, guid: 340610dad96c3b14683e7c3db1132410, type: 2}
      propertyPath: m_LocalRotation.z
      value: 0
      objectReference: {fileID: 0}
    - target: {fileID: 4480740978086640, guid: 340610dad96c3b14683e7c3db1132410, type: 2}
      propertyPath: m_LocalRotation.w
      value: 0
      objectReference: {fileID: 0}
    - target: {fileID: 4480740978086640, guid: 340610dad96c3b14683e7c3db1132410, type: 2}
      propertyPath: m_RootOrder
      value: 15
      objectReference: {fileID: 0}
    - target: {fileID: 82642358643517406, guid: 340610dad96c3b14683e7c3db1132410,
        type: 2}
      propertyPath: spreadCustomCurve.m_RotationOrder
      value: 0
      objectReference: {fileID: 0}
    - target: {fileID: 1033750289920412, guid: 340610dad96c3b14683e7c3db1132410, type: 2}
      propertyPath: m_Name
      value: Destroyable (6)
      objectReference: {fileID: 0}
    - target: {fileID: 4480740978086640, guid: 340610dad96c3b14683e7c3db1132410, type: 2}
      propertyPath: m_LocalEulerAnglesHint.y
      value: 180
      objectReference: {fileID: 0}
    m_RemovedComponents: []
  m_ParentPrefab: {fileID: 100100000, guid: 340610dad96c3b14683e7c3db1132410, type: 2}
  m_IsPrefabParent: 0
--- !u!1001 &1188766683
Prefab:
  m_ObjectHideFlags: 0
  serializedVersion: 2
  m_Modification:
    m_TransformParent: {fileID: 0}
    m_Modifications:
    - target: {fileID: 4480740978086640, guid: 340610dad96c3b14683e7c3db1132410, type: 2}
      propertyPath: m_LocalPosition.x
      value: 20.8
      objectReference: {fileID: 0}
    - target: {fileID: 4480740978086640, guid: 340610dad96c3b14683e7c3db1132410, type: 2}
      propertyPath: m_LocalPosition.y
      value: -68.5
      objectReference: {fileID: 0}
    - target: {fileID: 4480740978086640, guid: 340610dad96c3b14683e7c3db1132410, type: 2}
      propertyPath: m_LocalPosition.z
      value: 0
      objectReference: {fileID: 0}
    - target: {fileID: 4480740978086640, guid: 340610dad96c3b14683e7c3db1132410, type: 2}
      propertyPath: m_LocalRotation.x
      value: 0
      objectReference: {fileID: 0}
    - target: {fileID: 4480740978086640, guid: 340610dad96c3b14683e7c3db1132410, type: 2}
      propertyPath: m_LocalRotation.y
      value: 1
      objectReference: {fileID: 0}
    - target: {fileID: 4480740978086640, guid: 340610dad96c3b14683e7c3db1132410, type: 2}
      propertyPath: m_LocalRotation.z
      value: 0
      objectReference: {fileID: 0}
    - target: {fileID: 4480740978086640, guid: 340610dad96c3b14683e7c3db1132410, type: 2}
      propertyPath: m_LocalRotation.w
      value: 0
      objectReference: {fileID: 0}
    - target: {fileID: 4480740978086640, guid: 340610dad96c3b14683e7c3db1132410, type: 2}
      propertyPath: m_RootOrder
      value: 10
      objectReference: {fileID: 0}
    - target: {fileID: 82642358643517406, guid: 340610dad96c3b14683e7c3db1132410,
        type: 2}
      propertyPath: spreadCustomCurve.m_RotationOrder
      value: 0
      objectReference: {fileID: 0}
    - target: {fileID: 1033750289920412, guid: 340610dad96c3b14683e7c3db1132410, type: 2}
      propertyPath: m_Name
      value: Destroyable (2)
      objectReference: {fileID: 0}
    - target: {fileID: 4480740978086640, guid: 340610dad96c3b14683e7c3db1132410, type: 2}
      propertyPath: m_LocalEulerAnglesHint.y
      value: 180
      objectReference: {fileID: 0}
    m_RemovedComponents: []
  m_ParentPrefab: {fileID: 100100000, guid: 340610dad96c3b14683e7c3db1132410, type: 2}
  m_IsPrefabParent: 0
--- !u!1001 &1227407223
Prefab:
  m_ObjectHideFlags: 0
  serializedVersion: 2
  m_Modification:
    m_TransformParent: {fileID: 0}
    m_Modifications:
    - target: {fileID: 4158200592546660, guid: 47ec1585fffa3bb4fb5f83e2371416fc, type: 2}
      propertyPath: m_LocalPosition.x
      value: -70.7
      objectReference: {fileID: 0}
    - target: {fileID: 4158200592546660, guid: 47ec1585fffa3bb4fb5f83e2371416fc, type: 2}
      propertyPath: m_LocalPosition.y
      value: 21.7
      objectReference: {fileID: 0}
    - target: {fileID: 4158200592546660, guid: 47ec1585fffa3bb4fb5f83e2371416fc, type: 2}
      propertyPath: m_LocalPosition.z
      value: 0
      objectReference: {fileID: 0}
    - target: {fileID: 4158200592546660, guid: 47ec1585fffa3bb4fb5f83e2371416fc, type: 2}
      propertyPath: m_LocalRotation.x
      value: 0
      objectReference: {fileID: 0}
    - target: {fileID: 4158200592546660, guid: 47ec1585fffa3bb4fb5f83e2371416fc, type: 2}
      propertyPath: m_LocalRotation.y
      value: 0
      objectReference: {fileID: 0}
    - target: {fileID: 4158200592546660, guid: 47ec1585fffa3bb4fb5f83e2371416fc, type: 2}
      propertyPath: m_LocalRotation.z
      value: 0.7071068
      objectReference: {fileID: 0}
    - target: {fileID: 4158200592546660, guid: 47ec1585fffa3bb4fb5f83e2371416fc, type: 2}
      propertyPath: m_LocalRotation.w
      value: 0.7071068
      objectReference: {fileID: 0}
    - target: {fileID: 4158200592546660, guid: 47ec1585fffa3bb4fb5f83e2371416fc, type: 2}
      propertyPath: m_RootOrder
      value: 3
      objectReference: {fileID: 0}
    - target: {fileID: 4158200592546660, guid: 47ec1585fffa3bb4fb5f83e2371416fc, type: 2}
      propertyPath: m_LocalEulerAnglesHint.z
      value: 90
      objectReference: {fileID: 0}
    - target: {fileID: 4158200592546660, guid: 47ec1585fffa3bb4fb5f83e2371416fc, type: 2}
      propertyPath: m_LocalScale.y
      value: 4.506975
      objectReference: {fileID: 0}
    m_RemovedComponents: []
  m_ParentPrefab: {fileID: 100100000, guid: 47ec1585fffa3bb4fb5f83e2371416fc, type: 2}
  m_IsPrefabParent: 0
--- !u!1001 &1231693171
Prefab:
  m_ObjectHideFlags: 0
  serializedVersion: 2
  m_Modification:
    m_TransformParent: {fileID: 0}
    m_Modifications:
    - target: {fileID: 4158200592546660, guid: 47ec1585fffa3bb4fb5f83e2371416fc, type: 2}
      propertyPath: m_LocalPosition.x
      value: 73.3
      objectReference: {fileID: 0}
    - target: {fileID: 4158200592546660, guid: 47ec1585fffa3bb4fb5f83e2371416fc, type: 2}
      propertyPath: m_LocalPosition.y
      value: 21.5
      objectReference: {fileID: 0}
    - target: {fileID: 4158200592546660, guid: 47ec1585fffa3bb4fb5f83e2371416fc, type: 2}
      propertyPath: m_LocalPosition.z
      value: 0
      objectReference: {fileID: 0}
    - target: {fileID: 4158200592546660, guid: 47ec1585fffa3bb4fb5f83e2371416fc, type: 2}
      propertyPath: m_LocalRotation.x
      value: 0
      objectReference: {fileID: 0}
    - target: {fileID: 4158200592546660, guid: 47ec1585fffa3bb4fb5f83e2371416fc, type: 2}
      propertyPath: m_LocalRotation.y
      value: 0
      objectReference: {fileID: 0}
    - target: {fileID: 4158200592546660, guid: 47ec1585fffa3bb4fb5f83e2371416fc, type: 2}
      propertyPath: m_LocalRotation.z
      value: 0.7071068
      objectReference: {fileID: 0}
    - target: {fileID: 4158200592546660, guid: 47ec1585fffa3bb4fb5f83e2371416fc, type: 2}
      propertyPath: m_LocalRotation.w
      value: 0.7071068
      objectReference: {fileID: 0}
    - target: {fileID: 4158200592546660, guid: 47ec1585fffa3bb4fb5f83e2371416fc, type: 2}
      propertyPath: m_RootOrder
      value: 12
      objectReference: {fileID: 0}
    - target: {fileID: 4158200592546660, guid: 47ec1585fffa3bb4fb5f83e2371416fc, type: 2}
      propertyPath: m_LocalEulerAnglesHint.z
      value: 90
      objectReference: {fileID: 0}
    - target: {fileID: 1388102675588166, guid: 47ec1585fffa3bb4fb5f83e2371416fc, type: 2}
      propertyPath: m_Name
      value: BouncyPlatform (1)
      objectReference: {fileID: 0}
    - target: {fileID: 4158200592546660, guid: 47ec1585fffa3bb4fb5f83e2371416fc, type: 2}
      propertyPath: m_LocalScale.y
      value: 4.3069143
      objectReference: {fileID: 0}
    m_RemovedComponents: []
  m_ParentPrefab: {fileID: 100100000, guid: 47ec1585fffa3bb4fb5f83e2371416fc, type: 2}
  m_IsPrefabParent: 0
--- !u!1001 &1255666373
Prefab:
  m_ObjectHideFlags: 0
  serializedVersion: 2
  m_Modification:
    m_TransformParent: {fileID: 0}
    m_Modifications:
    - target: {fileID: 4704719978900506, guid: d00c8bb0894c7ea4c9c4e890658b3732, type: 2}
      propertyPath: m_LocalPosition.x
      value: 0
      objectReference: {fileID: 0}
    - target: {fileID: 4704719978900506, guid: d00c8bb0894c7ea4c9c4e890658b3732, type: 2}
      propertyPath: m_LocalPosition.y
      value: 0
      objectReference: {fileID: 0}
    - target: {fileID: 4704719978900506, guid: d00c8bb0894c7ea4c9c4e890658b3732, type: 2}
      propertyPath: m_LocalPosition.z
      value: -10
      objectReference: {fileID: 0}
    - target: {fileID: 4704719978900506, guid: d00c8bb0894c7ea4c9c4e890658b3732, type: 2}
      propertyPath: m_LocalRotation.x
      value: 0
      objectReference: {fileID: 0}
    - target: {fileID: 4704719978900506, guid: d00c8bb0894c7ea4c9c4e890658b3732, type: 2}
      propertyPath: m_LocalRotation.y
      value: 0
      objectReference: {fileID: 0}
    - target: {fileID: 4704719978900506, guid: d00c8bb0894c7ea4c9c4e890658b3732, type: 2}
      propertyPath: m_LocalRotation.z
      value: 0
      objectReference: {fileID: 0}
    - target: {fileID: 4704719978900506, guid: d00c8bb0894c7ea4c9c4e890658b3732, type: 2}
      propertyPath: m_LocalRotation.w
      value: 1
      objectReference: {fileID: 0}
    - target: {fileID: 4704719978900506, guid: d00c8bb0894c7ea4c9c4e890658b3732, type: 2}
      propertyPath: m_RootOrder
      value: 0
      objectReference: {fileID: 0}
    - target: {fileID: 20991213792276568, guid: d00c8bb0894c7ea4c9c4e890658b3732,
        type: 2}
      propertyPath: orthographic size
      value: 75
      objectReference: {fileID: 0}
    - target: {fileID: 82294961569751350, guid: d00c8bb0894c7ea4c9c4e890658b3732,
        type: 2}
      propertyPath: m_audioClip
      value: 
      objectReference: {fileID: 8300000, guid: e175509f1d67a034982a44391b126091, type: 3}
    - target: {fileID: 20991213792276568, guid: d00c8bb0894c7ea4c9c4e890658b3732,
        type: 2}
      propertyPath: m_Depth
      value: -10
      objectReference: {fileID: 0}
    m_RemovedComponents: []
  m_ParentPrefab: {fileID: 100100000, guid: d00c8bb0894c7ea4c9c4e890658b3732, type: 2}
  m_IsPrefabParent: 0
--- !u!82 &1255666374 stripped
AudioSource:
  m_PrefabParentObject: {fileID: 82294961569751350, guid: d00c8bb0894c7ea4c9c4e890658b3732,
    type: 2}
  m_PrefabInternal: {fileID: 1255666373}
--- !u!1001 &1378338166
Prefab:
  m_ObjectHideFlags: 0
  serializedVersion: 2
  m_Modification:
    m_TransformParent: {fileID: 0}
    m_Modifications:
    - target: {fileID: 4350911693346870, guid: 49312dc8437cd2848a925044f9f89a02, type: 2}
      propertyPath: m_LocalPosition.x
      value: 0
      objectReference: {fileID: 0}
    - target: {fileID: 4350911693346870, guid: 49312dc8437cd2848a925044f9f89a02, type: 2}
      propertyPath: m_LocalPosition.y
      value: 0
      objectReference: {fileID: 0}
    - target: {fileID: 4350911693346870, guid: 49312dc8437cd2848a925044f9f89a02, type: 2}
      propertyPath: m_LocalPosition.z
      value: -1
      objectReference: {fileID: 0}
    - target: {fileID: 4350911693346870, guid: 49312dc8437cd2848a925044f9f89a02, type: 2}
      propertyPath: m_LocalRotation.x
      value: -0
      objectReference: {fileID: 0}
    - target: {fileID: 4350911693346870, guid: 49312dc8437cd2848a925044f9f89a02, type: 2}
      propertyPath: m_LocalRotation.y
      value: 0.7071068
      objectReference: {fileID: 0}
    - target: {fileID: 4350911693346870, guid: 49312dc8437cd2848a925044f9f89a02, type: 2}
      propertyPath: m_LocalRotation.z
      value: -0.7071068
      objectReference: {fileID: 0}
    - target: {fileID: 4350911693346870, guid: 49312dc8437cd2848a925044f9f89a02, type: 2}
      propertyPath: m_LocalRotation.w
      value: 0
      objectReference: {fileID: 0}
    - target: {fileID: 4350911693346870, guid: 49312dc8437cd2848a925044f9f89a02, type: 2}
      propertyPath: m_RootOrder
      value: 16
      objectReference: {fileID: 0}
    m_RemovedComponents: []
  m_ParentPrefab: {fileID: 100100000, guid: 49312dc8437cd2848a925044f9f89a02, type: 2}
  m_IsPrefabParent: 0
--- !u!1001 &1459625915
Prefab:
  m_ObjectHideFlags: 0
  serializedVersion: 2
  m_Modification:
    m_TransformParent: {fileID: 0}
    m_Modifications:
    - target: {fileID: 4169934667913836, guid: 7bd9fa3c367a80f4db4724e68dd3bfa2, type: 2}
      propertyPath: m_LocalPosition.x
      value: -81.6
      objectReference: {fileID: 0}
    - target: {fileID: 4169934667913836, guid: 7bd9fa3c367a80f4db4724e68dd3bfa2, type: 2}
      propertyPath: m_LocalPosition.y
      value: 6.6000023
      objectReference: {fileID: 0}
    - target: {fileID: 4169934667913836, guid: 7bd9fa3c367a80f4db4724e68dd3bfa2, type: 2}
      propertyPath: m_LocalPosition.z
      value: 0
      objectReference: {fileID: 0}
    - target: {fileID: 4169934667913836, guid: 7bd9fa3c367a80f4db4724e68dd3bfa2, type: 2}
      propertyPath: m_LocalRotation.x
      value: 0
      objectReference: {fileID: 0}
    - target: {fileID: 4169934667913836, guid: 7bd9fa3c367a80f4db4724e68dd3bfa2, type: 2}
      propertyPath: m_LocalRotation.y
      value: 0
      objectReference: {fileID: 0}
    - target: {fileID: 4169934667913836, guid: 7bd9fa3c367a80f4db4724e68dd3bfa2, type: 2}
      propertyPath: m_LocalRotation.z
      value: 1
      objectReference: {fileID: 0}
    - target: {fileID: 4169934667913836, guid: 7bd9fa3c367a80f4db4724e68dd3bfa2, type: 2}
      propertyPath: m_LocalRotation.w
      value: 0
      objectReference: {fileID: 0}
    - target: {fileID: 4169934667913836, guid: 7bd9fa3c367a80f4db4724e68dd3bfa2, type: 2}
      propertyPath: m_RootOrder
      value: 17
      objectReference: {fileID: 0}
    - target: {fileID: 4169934667913836, guid: 7bd9fa3c367a80f4db4724e68dd3bfa2, type: 2}
      propertyPath: m_LocalScale.x
      value: 2.335584
      objectReference: {fileID: 0}
    - target: {fileID: 1321627511582884, guid: 7bd9fa3c367a80f4db4724e68dd3bfa2, type: 2}
      propertyPath: m_Name
      value: plank_long (1)
      objectReference: {fileID: 0}
    - target: {fileID: 4169934667913836, guid: 7bd9fa3c367a80f4db4724e68dd3bfa2, type: 2}
      propertyPath: m_LocalEulerAnglesHint.z
      value: 180
      objectReference: {fileID: 0}
    m_RemovedComponents: []
  m_ParentPrefab: {fileID: 100100000, guid: 7bd9fa3c367a80f4db4724e68dd3bfa2, type: 2}
  m_IsPrefabParent: 0
--- !u!1001 &1557702234
Prefab:
  m_ObjectHideFlags: 0
  serializedVersion: 2
  m_Modification:
    m_TransformParent: {fileID: 0}
    m_Modifications:
    - target: {fileID: 4480740978086640, guid: 340610dad96c3b14683e7c3db1132410, type: 2}
      propertyPath: m_LocalPosition.x
      value: -0.5
      objectReference: {fileID: 0}
    - target: {fileID: 4480740978086640, guid: 340610dad96c3b14683e7c3db1132410, type: 2}
      propertyPath: m_LocalPosition.y
      value: -68.5
      objectReference: {fileID: 0}
    - target: {fileID: 4480740978086640, guid: 340610dad96c3b14683e7c3db1132410, type: 2}
      propertyPath: m_LocalPosition.z
      value: 0
      objectReference: {fileID: 0}
    - target: {fileID: 4480740978086640, guid: 340610dad96c3b14683e7c3db1132410, type: 2}
      propertyPath: m_LocalRotation.x
      value: 0
      objectReference: {fileID: 0}
    - target: {fileID: 4480740978086640, guid: 340610dad96c3b14683e7c3db1132410, type: 2}
      propertyPath: m_LocalRotation.y
      value: 1
      objectReference: {fileID: 0}
    - target: {fileID: 4480740978086640, guid: 340610dad96c3b14683e7c3db1132410, type: 2}
      propertyPath: m_LocalRotation.z
      value: 0
      objectReference: {fileID: 0}
    - target: {fileID: 4480740978086640, guid: 340610dad96c3b14683e7c3db1132410, type: 2}
      propertyPath: m_LocalRotation.w
      value: 0
      objectReference: {fileID: 0}
    - target: {fileID: 4480740978086640, guid: 340610dad96c3b14683e7c3db1132410, type: 2}
      propertyPath: m_RootOrder
      value: 13
      objectReference: {fileID: 0}
    - target: {fileID: 82642358643517406, guid: 340610dad96c3b14683e7c3db1132410,
        type: 2}
      propertyPath: spreadCustomCurve.m_RotationOrder
      value: 0
      objectReference: {fileID: 0}
    - target: {fileID: 1033750289920412, guid: 340610dad96c3b14683e7c3db1132410, type: 2}
      propertyPath: m_Name
      value: Destroyable (4)
      objectReference: {fileID: 0}
    - target: {fileID: 4480740978086640, guid: 340610dad96c3b14683e7c3db1132410, type: 2}
      propertyPath: m_LocalEulerAnglesHint.y
      value: 180
      objectReference: {fileID: 0}
    m_RemovedComponents: []
  m_ParentPrefab: {fileID: 100100000, guid: 340610dad96c3b14683e7c3db1132410, type: 2}
  m_IsPrefabParent: 0
--- !u!1001 &1562187776
Prefab:
  m_ObjectHideFlags: 0
  serializedVersion: 2
  m_Modification:
    m_TransformParent: {fileID: 0}
    m_Modifications:
    - target: {fileID: 4926917749941856, guid: 6076735f0d1c6fd44b3e34a162edb41c, type: 2}
      propertyPath: m_LocalPosition.x
      value: 0.1
      objectReference: {fileID: 0}
    - target: {fileID: 4926917749941856, guid: 6076735f0d1c6fd44b3e34a162edb41c, type: 2}
      propertyPath: m_LocalPosition.y
      value: -29.3
      objectReference: {fileID: 0}
    - target: {fileID: 4926917749941856, guid: 6076735f0d1c6fd44b3e34a162edb41c, type: 2}
      propertyPath: m_LocalPosition.z
      value: 0
      objectReference: {fileID: 0}
    - target: {fileID: 4926917749941856, guid: 6076735f0d1c6fd44b3e34a162edb41c, type: 2}
      propertyPath: m_LocalRotation.x
      value: 0
      objectReference: {fileID: 0}
    - target: {fileID: 4926917749941856, guid: 6076735f0d1c6fd44b3e34a162edb41c, type: 2}
      propertyPath: m_LocalRotation.y
      value: 0
      objectReference: {fileID: 0}
    - target: {fileID: 4926917749941856, guid: 6076735f0d1c6fd44b3e34a162edb41c, type: 2}
      propertyPath: m_LocalRotation.z
      value: 0
      objectReference: {fileID: 0}
    - target: {fileID: 4926917749941856, guid: 6076735f0d1c6fd44b3e34a162edb41c, type: 2}
      propertyPath: m_LocalRotation.w
      value: 1
      objectReference: {fileID: 0}
    - target: {fileID: 4926917749941856, guid: 6076735f0d1c6fd44b3e34a162edb41c, type: 2}
      propertyPath: m_RootOrder
      value: 5
      objectReference: {fileID: 0}
    m_RemovedComponents: []
  m_ParentPrefab: {fileID: 100100000, guid: 6076735f0d1c6fd44b3e34a162edb41c, type: 2}
  m_IsPrefabParent: 0
--- !u!1001 &1564937660
Prefab:
  m_ObjectHideFlags: 0
  serializedVersion: 2
  m_Modification:
    m_TransformParent: {fileID: 0}
    m_Modifications:
    - target: {fileID: 4008134824265050, guid: 5dc5e750cf268434b844186466a552cf, type: 2}
      propertyPath: m_LocalPosition.x
      value: -70.9
      objectReference: {fileID: 0}
    - target: {fileID: 4008134824265050, guid: 5dc5e750cf268434b844186466a552cf, type: 2}
      propertyPath: m_LocalPosition.y
      value: 5.98
      objectReference: {fileID: 0}
    - target: {fileID: 4008134824265050, guid: 5dc5e750cf268434b844186466a552cf, type: 2}
      propertyPath: m_LocalPosition.z
      value: 0
      objectReference: {fileID: 0}
    - target: {fileID: 4008134824265050, guid: 5dc5e750cf268434b844186466a552cf, type: 2}
      propertyPath: m_LocalRotation.x
      value: 0
      objectReference: {fileID: 0}
    - target: {fileID: 4008134824265050, guid: 5dc5e750cf268434b844186466a552cf, type: 2}
      propertyPath: m_LocalRotation.y
      value: 0
      objectReference: {fileID: 0}
    - target: {fileID: 4008134824265050, guid: 5dc5e750cf268434b844186466a552cf, type: 2}
      propertyPath: m_LocalRotation.z
      value: 0.7071068
      objectReference: {fileID: 0}
    - target: {fileID: 4008134824265050, guid: 5dc5e750cf268434b844186466a552cf, type: 2}
      propertyPath: m_LocalRotation.w
      value: 0.7071068
      objectReference: {fileID: 0}
    - target: {fileID: 4008134824265050, guid: 5dc5e750cf268434b844186466a552cf, type: 2}
      propertyPath: m_RootOrder
      value: 21
      objectReference: {fileID: 0}
    - target: {fileID: 1262576074628054, guid: 5dc5e750cf268434b844186466a552cf, type: 2}
      propertyPath: m_Name
      value: plank_normal_horizontal (2)
      objectReference: {fileID: 0}
    - target: {fileID: 4008134824265050, guid: 5dc5e750cf268434b844186466a552cf, type: 2}
      propertyPath: m_LocalScale.y
      value: 0.6198208
      objectReference: {fileID: 0}
    m_RemovedComponents: []
  m_ParentPrefab: {fileID: 100100000, guid: 5dc5e750cf268434b844186466a552cf, type: 2}
  m_IsPrefabParent: 0
--- !u!1001 &1576686424
Prefab:
  m_ObjectHideFlags: 0
  serializedVersion: 2
  m_Modification:
    m_TransformParent: {fileID: 0}
    m_Modifications:
    - target: {fileID: 4480740978086640, guid: 340610dad96c3b14683e7c3db1132410, type: 2}
      propertyPath: m_LocalPosition.x
      value: 20.8
      objectReference: {fileID: 0}
    - target: {fileID: 4480740978086640, guid: 340610dad96c3b14683e7c3db1132410, type: 2}
      propertyPath: m_LocalPosition.y
      value: -45.5
      objectReference: {fileID: 0}
    - target: {fileID: 4480740978086640, guid: 340610dad96c3b14683e7c3db1132410, type: 2}
      propertyPath: m_LocalPosition.z
      value: 0
      objectReference: {fileID: 0}
    - target: {fileID: 4480740978086640, guid: 340610dad96c3b14683e7c3db1132410, type: 2}
      propertyPath: m_LocalRotation.x
      value: 0
      objectReference: {fileID: 0}
    - target: {fileID: 4480740978086640, guid: 340610dad96c3b14683e7c3db1132410, type: 2}
      propertyPath: m_LocalRotation.y
      value: 1
      objectReference: {fileID: 0}
    - target: {fileID: 4480740978086640, guid: 340610dad96c3b14683e7c3db1132410, type: 2}
      propertyPath: m_LocalRotation.z
      value: 0
      objectReference: {fileID: 0}
    - target: {fileID: 4480740978086640, guid: 340610dad96c3b14683e7c3db1132410, type: 2}
      propertyPath: m_LocalRotation.w
      value: 0
      objectReference: {fileID: 0}
    - target: {fileID: 4480740978086640, guid: 340610dad96c3b14683e7c3db1132410, type: 2}
      propertyPath: m_RootOrder
      value: 14
      objectReference: {fileID: 0}
    - target: {fileID: 82642358643517406, guid: 340610dad96c3b14683e7c3db1132410,
        type: 2}
      propertyPath: spreadCustomCurve.m_RotationOrder
      value: 0
      objectReference: {fileID: 0}
    - target: {fileID: 1033750289920412, guid: 340610dad96c3b14683e7c3db1132410, type: 2}
      propertyPath: m_Name
      value: Destroyable (5)
      objectReference: {fileID: 0}
    - target: {fileID: 4480740978086640, guid: 340610dad96c3b14683e7c3db1132410, type: 2}
      propertyPath: m_LocalEulerAnglesHint.y
      value: 180
      objectReference: {fileID: 0}
    m_RemovedComponents: []
  m_ParentPrefab: {fileID: 100100000, guid: 340610dad96c3b14683e7c3db1132410, type: 2}
  m_IsPrefabParent: 0
--- !u!1001 &1777285212
Prefab:
  m_ObjectHideFlags: 0
  serializedVersion: 2
  m_Modification:
    m_TransformParent: {fileID: 0}
    m_Modifications:
    - target: {fileID: 4191215223220758, guid: 875f2aaccea008047bd1db948ff6c4aa, type: 2}
      propertyPath: m_LocalPosition.x
      value: -0.4
      objectReference: {fileID: 0}
    - target: {fileID: 4191215223220758, guid: 875f2aaccea008047bd1db948ff6c4aa, type: 2}
      propertyPath: m_LocalPosition.y
      value: 37.21792
      objectReference: {fileID: 0}
    - target: {fileID: 4191215223220758, guid: 875f2aaccea008047bd1db948ff6c4aa, type: 2}
      propertyPath: m_LocalPosition.z
      value: 0
      objectReference: {fileID: 0}
    - target: {fileID: 4191215223220758, guid: 875f2aaccea008047bd1db948ff6c4aa, type: 2}
      propertyPath: m_LocalRotation.x
      value: 0
      objectReference: {fileID: 0}
    - target: {fileID: 4191215223220758, guid: 875f2aaccea008047bd1db948ff6c4aa, type: 2}
      propertyPath: m_LocalRotation.y
      value: 1
      objectReference: {fileID: 0}
    - target: {fileID: 4191215223220758, guid: 875f2aaccea008047bd1db948ff6c4aa, type: 2}
      propertyPath: m_LocalRotation.z
      value: 0
      objectReference: {fileID: 0}
    - target: {fileID: 4191215223220758, guid: 875f2aaccea008047bd1db948ff6c4aa, type: 2}
      propertyPath: m_LocalRotation.w
      value: 0
      objectReference: {fileID: 0}
    - target: {fileID: 4191215223220758, guid: 875f2aaccea008047bd1db948ff6c4aa, type: 2}
      propertyPath: m_RootOrder
      value: 4
      objectReference: {fileID: 0}
    - target: {fileID: 114601442223554228, guid: 875f2aaccea008047bd1db948ff6c4aa,
        type: 2}
      propertyPath: VictoryPanel
      value: 
      objectReference: {fileID: 410706943}
    m_RemovedComponents: []
  m_ParentPrefab: {fileID: 100100000, guid: 875f2aaccea008047bd1db948ff6c4aa, type: 2}
  m_IsPrefabParent: 0
--- !u!1001 &1852329199
Prefab:
  m_ObjectHideFlags: 0
  serializedVersion: 2
  m_Modification:
    m_TransformParent: {fileID: 0}
    m_Modifications:
    - target: {fileID: 4008134824265050, guid: 5dc5e750cf268434b844186466a552cf, type: 2}
      propertyPath: m_LocalPosition.x
      value: 0.35295534
      objectReference: {fileID: 0}
    - target: {fileID: 4008134824265050, guid: 5dc5e750cf268434b844186466a552cf, type: 2}
      propertyPath: m_LocalPosition.y
      value: 23.9
      objectReference: {fileID: 0}
    - target: {fileID: 4008134824265050, guid: 5dc5e750cf268434b844186466a552cf, type: 2}
      propertyPath: m_LocalPosition.z
      value: 0
      objectReference: {fileID: 0}
    - target: {fileID: 4008134824265050, guid: 5dc5e750cf268434b844186466a552cf, type: 2}
      propertyPath: m_LocalRotation.x
      value: 0
      objectReference: {fileID: 0}
    - target: {fileID: 4008134824265050, guid: 5dc5e750cf268434b844186466a552cf, type: 2}
      propertyPath: m_LocalRotation.y
      value: 0
      objectReference: {fileID: 0}
    - target: {fileID: 4008134824265050, guid: 5dc5e750cf268434b844186466a552cf, type: 2}
      propertyPath: m_LocalRotation.z
      value: 0.7071068
      objectReference: {fileID: 0}
    - target: {fileID: 4008134824265050, guid: 5dc5e750cf268434b844186466a552cf, type: 2}
      propertyPath: m_LocalRotation.w
      value: 0.7071068
      objectReference: {fileID: 0}
    - target: {fileID: 4008134824265050, guid: 5dc5e750cf268434b844186466a552cf, type: 2}
      propertyPath: m_RootOrder
      value: 2
      objectReference: {fileID: 0}
    m_RemovedComponents: []
  m_ParentPrefab: {fileID: 100100000, guid: 5dc5e750cf268434b844186466a552cf, type: 2}
  m_IsPrefabParent: 0
--- !u!1001 &2058911585
Prefab:
  m_ObjectHideFlags: 0
  serializedVersion: 2
  m_Modification:
    m_TransformParent: {fileID: 0}
    m_Modifications:
    - target: {fileID: 4480740978086640, guid: 340610dad96c3b14683e7c3db1132410, type: 2}
      propertyPath: m_LocalPosition.x
      value: -21.9
      objectReference: {fileID: 0}
    - target: {fileID: 4480740978086640, guid: 340610dad96c3b14683e7c3db1132410, type: 2}
      propertyPath: m_LocalPosition.y
      value: -68.5
      objectReference: {fileID: 0}
    - target: {fileID: 4480740978086640, guid: 340610dad96c3b14683e7c3db1132410, type: 2}
      propertyPath: m_LocalPosition.z
      value: 0
      objectReference: {fileID: 0}
    - target: {fileID: 4480740978086640, guid: 340610dad96c3b14683e7c3db1132410, type: 2}
      propertyPath: m_LocalRotation.x
      value: 0
      objectReference: {fileID: 0}
    - target: {fileID: 4480740978086640, guid: 340610dad96c3b14683e7c3db1132410, type: 2}
      propertyPath: m_LocalRotation.y
      value: 1
      objectReference: {fileID: 0}
    - target: {fileID: 4480740978086640, guid: 340610dad96c3b14683e7c3db1132410, type: 2}
      propertyPath: m_LocalRotation.z
      value: 0
      objectReference: {fileID: 0}
    - target: {fileID: 4480740978086640, guid: 340610dad96c3b14683e7c3db1132410, type: 2}
      propertyPath: m_LocalRotation.w
      value: 0
      objectReference: {fileID: 0}
    - target: {fileID: 4480740978086640, guid: 340610dad96c3b14683e7c3db1132410, type: 2}
      propertyPath: m_RootOrder
      value: 11
      objectReference: {fileID: 0}
    - target: {fileID: 82642358643517406, guid: 340610dad96c3b14683e7c3db1132410,
        type: 2}
      propertyPath: spreadCustomCurve.m_RotationOrder
      value: 0
      objectReference: {fileID: 0}
    - target: {fileID: 1033750289920412, guid: 340610dad96c3b14683e7c3db1132410, type: 2}
      propertyPath: m_Name
      value: Destroyable (3)
      objectReference: {fileID: 0}
    - target: {fileID: 4480740978086640, guid: 340610dad96c3b14683e7c3db1132410, type: 2}
      propertyPath: m_LocalEulerAnglesHint.y
      value: 180
      objectReference: {fileID: 0}
    m_RemovedComponents: []
  m_ParentPrefab: {fileID: 100100000, guid: 340610dad96c3b14683e7c3db1132410, type: 2}
  m_IsPrefabParent: 0
--- !u!1001 &2093491524
Prefab:
  m_ObjectHideFlags: 0
  serializedVersion: 2
  m_Modification:
    m_TransformParent: {fileID: 0}
    m_Modifications:
    - target: {fileID: 4892626375275778, guid: bf7774c4fac7d2846a9a247ca39913ca, type: 2}
      propertyPath: m_LocalPosition.x
      value: 0
      objectReference: {fileID: 0}
    - target: {fileID: 4892626375275778, guid: bf7774c4fac7d2846a9a247ca39913ca, type: 2}
      propertyPath: m_LocalPosition.y
      value: 0
      objectReference: {fileID: 0}
    - target: {fileID: 4892626375275778, guid: bf7774c4fac7d2846a9a247ca39913ca, type: 2}
      propertyPath: m_LocalPosition.z
      value: 0
      objectReference: {fileID: 0}
    - target: {fileID: 4892626375275778, guid: bf7774c4fac7d2846a9a247ca39913ca, type: 2}
      propertyPath: m_LocalRotation.x
      value: -0
      objectReference: {fileID: 0}
    - target: {fileID: 4892626375275778, guid: bf7774c4fac7d2846a9a247ca39913ca, type: 2}
      propertyPath: m_LocalRotation.y
      value: -0
      objectReference: {fileID: 0}
    - target: {fileID: 4892626375275778, guid: bf7774c4fac7d2846a9a247ca39913ca, type: 2}
      propertyPath: m_LocalRotation.z
      value: -0
      objectReference: {fileID: 0}
    - target: {fileID: 4892626375275778, guid: bf7774c4fac7d2846a9a247ca39913ca, type: 2}
      propertyPath: m_LocalRotation.w
      value: 1
      objectReference: {fileID: 0}
    - target: {fileID: 4892626375275778, guid: bf7774c4fac7d2846a9a247ca39913ca, type: 2}
      propertyPath: m_RootOrder
      value: 8
      objectReference: {fileID: 0}
    - target: {fileID: 4892626375275778, guid: bf7774c4fac7d2846a9a247ca39913ca, type: 2}
      propertyPath: m_LocalScale.x
      value: 2.7
      objectReference: {fileID: 0}
    - target: {fileID: 4892626375275778, guid: bf7774c4fac7d2846a9a247ca39913ca, type: 2}
      propertyPath: m_LocalScale.y
      value: 2.7
      objectReference: {fileID: 0}
    m_RemovedComponents: []
  m_ParentPrefab: {fileID: 100100000, guid: bf7774c4fac7d2846a9a247ca39913ca, type: 2}
  m_IsPrefabParent: 0
