%YAML 1.1
%TAG !u! tag:unity3d.com,2011:
--- !u!29 &1
OcclusionCullingSettings:
  m_ObjectHideFlags: 0
  serializedVersion: 2
  m_OcclusionBakeSettings:
    smallestOccluder: 5
    smallestHole: 0.25
    backfaceThreshold: 100
  m_SceneGUID: 00000000000000000000000000000000
  m_OcclusionCullingData: {fileID: 0}
--- !u!104 &2
RenderSettings:
  m_ObjectHideFlags: 0
  serializedVersion: 8
  m_Fog: 0
  m_FogColor: {r: 0.5, g: 0.5, b: 0.5, a: 1}
  m_FogMode: 3
  m_FogDensity: 0.01
  m_LinearFogStart: 0
  m_LinearFogEnd: 300
  m_AmbientSkyColor: {r: 0.212, g: 0.227, b: 0.259, a: 1}
  m_AmbientEquatorColor: {r: 0.114, g: 0.125, b: 0.133, a: 1}
  m_AmbientGroundColor: {r: 0.047, g: 0.043, b: 0.035, a: 1}
  m_AmbientIntensity: 1
  m_AmbientMode: 3
  m_SubtractiveShadowColor: {r: 0.42, g: 0.478, b: 0.627, a: 1}
  m_SkyboxMaterial: {fileID: 0}
  m_HaloStrength: 0.5
  m_FlareStrength: 1
  m_FlareFadeSpeed: 3
  m_HaloTexture: {fileID: 0}
  m_SpotCookie: {fileID: 10001, guid: 0000000000000000e000000000000000, type: 0}
  m_DefaultReflectionMode: 0
  m_DefaultReflectionResolution: 128
  m_ReflectionBounces: 1
  m_ReflectionIntensity: 1
  m_CustomReflection: {fileID: 0}
  m_Sun: {fileID: 0}
  m_IndirectSpecularColor: {r: 0, g: 0, b: 0, a: 1}
--- !u!157 &3
LightmapSettings:
  m_ObjectHideFlags: 0
  serializedVersion: 11
  m_GIWorkflowMode: 1
  m_GISettings:
    serializedVersion: 2
    m_BounceScale: 1
    m_IndirectOutputScale: 1
    m_AlbedoBoost: 1
    m_TemporalCoherenceThreshold: 1
    m_EnvironmentLightingMode: 0
    m_EnableBakedLightmaps: 0
    m_EnableRealtimeLightmaps: 0
  m_LightmapEditorSettings:
    serializedVersion: 9
    m_Resolution: 2
    m_BakeResolution: 40
    m_TextureWidth: 1024
    m_TextureHeight: 1024
    m_AO: 0
    m_AOMaxDistance: 1
    m_CompAOExponent: 1
    m_CompAOExponentDirect: 0
    m_Padding: 2
    m_LightmapParameters: {fileID: 0}
    m_LightmapsBakeMode: 1
    m_TextureCompression: 1
    m_FinalGather: 0
    m_FinalGatherFiltering: 1
    m_FinalGatherRayCount: 256
    m_ReflectionCompression: 2
    m_MixedBakeMode: 2
    m_BakeBackend: 0
    m_PVRSampling: 1
    m_PVRDirectSampleCount: 32
    m_PVRSampleCount: 500
    m_PVRBounces: 2
    m_PVRFilterTypeDirect: 0
    m_PVRFilterTypeIndirect: 0
    m_PVRFilterTypeAO: 0
    m_PVRFilteringMode: 1
    m_PVRCulling: 1
    m_PVRFilteringGaussRadiusDirect: 1
    m_PVRFilteringGaussRadiusIndirect: 5
    m_PVRFilteringGaussRadiusAO: 2
    m_PVRFilteringAtrousPositionSigmaDirect: 0.5
    m_PVRFilteringAtrousPositionSigmaIndirect: 2
    m_PVRFilteringAtrousPositionSigmaAO: 1
    m_ShowResolutionOverlay: 1
  m_LightingDataAsset: {fileID: 0}
  m_UseShadowmask: 1
--- !u!196 &4
NavMeshSettings:
  serializedVersion: 2
  m_ObjectHideFlags: 0
  m_BuildSettings:
    serializedVersion: 2
    agentTypeID: 0
    agentRadius: 0.5
    agentHeight: 2
    agentSlope: 45
    agentClimb: 0.4
    ledgeDropHeight: 0
    maxJumpAcrossDistance: 0
    minRegionArea: 2
    manualCellSize: 0
    cellSize: 0.16666667
    manualTileSize: 0
    tileSize: 256
    accuratePlacement: 0
    debug:
      m_Flags: 0
  m_NavMeshData: {fileID: 0}
--- !u!1001 &11199290
Prefab:
  m_ObjectHideFlags: 0
  serializedVersion: 2
  m_Modification:
    m_TransformParent: {fileID: 0}
    m_Modifications:
    - target: {fileID: 4704719978900506, guid: d00c8bb0894c7ea4c9c4e890658b3732, type: 2}
      propertyPath: m_LocalPosition.x
      value: 0
      objectReference: {fileID: 0}
    - target: {fileID: 4704719978900506, guid: d00c8bb0894c7ea4c9c4e890658b3732, type: 2}
      propertyPath: m_LocalPosition.y
      value: 0
      objectReference: {fileID: 0}
    - target: {fileID: 4704719978900506, guid: d00c8bb0894c7ea4c9c4e890658b3732, type: 2}
      propertyPath: m_LocalPosition.z
      value: -10
      objectReference: {fileID: 0}
    - target: {fileID: 4704719978900506, guid: d00c8bb0894c7ea4c9c4e890658b3732, type: 2}
      propertyPath: m_LocalRotation.x
      value: 0
      objectReference: {fileID: 0}
    - target: {fileID: 4704719978900506, guid: d00c8bb0894c7ea4c9c4e890658b3732, type: 2}
      propertyPath: m_LocalRotation.y
      value: 0
      objectReference: {fileID: 0}
    - target: {fileID: 4704719978900506, guid: d00c8bb0894c7ea4c9c4e890658b3732, type: 2}
      propertyPath: m_LocalRotation.z
      value: 0
      objectReference: {fileID: 0}
    - target: {fileID: 4704719978900506, guid: d00c8bb0894c7ea4c9c4e890658b3732, type: 2}
      propertyPath: m_LocalRotation.w
      value: 1
      objectReference: {fileID: 0}
    - target: {fileID: 4704719978900506, guid: d00c8bb0894c7ea4c9c4e890658b3732, type: 2}
      propertyPath: m_RootOrder
      value: 0
      objectReference: {fileID: 0}
    - target: {fileID: 20991213792276568, guid: d00c8bb0894c7ea4c9c4e890658b3732,
        type: 2}
      propertyPath: orthographic size
      value: 100
      objectReference: {fileID: 0}
    m_RemovedComponents: []
  m_ParentPrefab: {fileID: 100100000, guid: d00c8bb0894c7ea4c9c4e890658b3732, type: 2}
  m_IsPrefabParent: 0
--- !u!1001 &35103738
Prefab:
  m_ObjectHideFlags: 0
  serializedVersion: 2
  m_Modification:
    m_TransformParent: {fileID: 0}
    m_Modifications:
    - target: {fileID: 4085731516620950, guid: 99abf5058177b3d488344035f136879d, type: 2}
      propertyPath: m_LocalPosition.x
      value: 0
      objectReference: {fileID: 0}
    - target: {fileID: 4085731516620950, guid: 99abf5058177b3d488344035f136879d, type: 2}
      propertyPath: m_LocalPosition.y
      value: 0
      objectReference: {fileID: 0}
    - target: {fileID: 4085731516620950, guid: 99abf5058177b3d488344035f136879d, type: 2}
      propertyPath: m_LocalPosition.z
      value: -1
      objectReference: {fileID: 0}
    - target: {fileID: 4085731516620950, guid: 99abf5058177b3d488344035f136879d, type: 2}
      propertyPath: m_LocalRotation.x
      value: -0
      objectReference: {fileID: 0}
    - target: {fileID: 4085731516620950, guid: 99abf5058177b3d488344035f136879d, type: 2}
      propertyPath: m_LocalRotation.y
      value: 0.7071068
      objectReference: {fileID: 0}
    - target: {fileID: 4085731516620950, guid: 99abf5058177b3d488344035f136879d, type: 2}
      propertyPath: m_LocalRotation.z
      value: -0.7071068
      objectReference: {fileID: 0}
    - target: {fileID: 4085731516620950, guid: 99abf5058177b3d488344035f136879d, type: 2}
      propertyPath: m_LocalRotation.w
      value: 0
      objectReference: {fileID: 0}
    - target: {fileID: 4085731516620950, guid: 99abf5058177b3d488344035f136879d, type: 2}
      propertyPath: m_RootOrder
      value: 14
      objectReference: {fileID: 0}
    - target: {fileID: 198765823437580704, guid: 99abf5058177b3d488344035f136879d,
        type: 2}
      propertyPath: randomSeed
      value: 1474078668
      objectReference: {fileID: 0}
    - target: {fileID: 198765823437580704, guid: 99abf5058177b3d488344035f136879d,
        type: 2}
      propertyPath: ShapeModule.m_Scale.z
      value: 383.85773
      objectReference: {fileID: 0}
    - target: {fileID: 198765823437580704, guid: 99abf5058177b3d488344035f136879d,
        type: 2}
      propertyPath: ShapeModule.m_Scale.x
      value: 229.67758
      objectReference: {fileID: 0}
    m_RemovedComponents: []
  m_ParentPrefab: {fileID: 100100000, guid: 99abf5058177b3d488344035f136879d, type: 2}
  m_IsPrefabParent: 0
--- !u!1001 &99650949
Prefab:
  m_ObjectHideFlags: 0
  serializedVersion: 2
  m_Modification:
    m_TransformParent: {fileID: 0}
    m_Modifications:
    - target: {fileID: 4021086794851172, guid: 0565fdb26f6e699428cfcc81f23de42e, type: 2}
      propertyPath: m_LocalPosition.x
      value: -93.335304
      objectReference: {fileID: 0}
    - target: {fileID: 4021086794851172, guid: 0565fdb26f6e699428cfcc81f23de42e, type: 2}
      propertyPath: m_LocalPosition.y
      value: 61.877365
      objectReference: {fileID: 0}
    - target: {fileID: 4021086794851172, guid: 0565fdb26f6e699428cfcc81f23de42e, type: 2}
      propertyPath: m_LocalPosition.z
      value: 0
      objectReference: {fileID: 0}
    - target: {fileID: 4021086794851172, guid: 0565fdb26f6e699428cfcc81f23de42e, type: 2}
      propertyPath: m_LocalRotation.x
      value: 0
      objectReference: {fileID: 0}
    - target: {fileID: 4021086794851172, guid: 0565fdb26f6e699428cfcc81f23de42e, type: 2}
      propertyPath: m_LocalRotation.y
      value: 0
      objectReference: {fileID: 0}
    - target: {fileID: 4021086794851172, guid: 0565fdb26f6e699428cfcc81f23de42e, type: 2}
      propertyPath: m_LocalRotation.z
      value: 0
      objectReference: {fileID: 0}
    - target: {fileID: 4021086794851172, guid: 0565fdb26f6e699428cfcc81f23de42e, type: 2}
      propertyPath: m_LocalRotation.w
      value: 1
      objectReference: {fileID: 0}
    - target: {fileID: 4021086794851172, guid: 0565fdb26f6e699428cfcc81f23de42e, type: 2}
      propertyPath: m_RootOrder
      value: 3
      objectReference: {fileID: 0}
    m_RemovedComponents: []
  m_ParentPrefab: {fileID: 100100000, guid: 0565fdb26f6e699428cfcc81f23de42e, type: 2}
  m_IsPrefabParent: 0
--- !u!1001 &361408775
Prefab:
  m_ObjectHideFlags: 0
  serializedVersion: 2
  m_Modification:
    m_TransformParent: {fileID: 0}
    m_Modifications:
    - target: {fileID: 4630888335494662, guid: 0bd5fd9da8d44d941ad0249b408bebe5, type: 2}
      propertyPath: m_LocalPosition.x
      value: 0
      objectReference: {fileID: 0}
    - target: {fileID: 4630888335494662, guid: 0bd5fd9da8d44d941ad0249b408bebe5, type: 2}
      propertyPath: m_LocalPosition.y
      value: 0
      objectReference: {fileID: 0}
    - target: {fileID: 4630888335494662, guid: 0bd5fd9da8d44d941ad0249b408bebe5, type: 2}
      propertyPath: m_LocalPosition.z
      value: 0
      objectReference: {fileID: 0}
    - target: {fileID: 4630888335494662, guid: 0bd5fd9da8d44d941ad0249b408bebe5, type: 2}
      propertyPath: m_LocalRotation.x
      value: 0
      objectReference: {fileID: 0}
    - target: {fileID: 4630888335494662, guid: 0bd5fd9da8d44d941ad0249b408bebe5, type: 2}
      propertyPath: m_LocalRotation.y
      value: 0
      objectReference: {fileID: 0}
    - target: {fileID: 4630888335494662, guid: 0bd5fd9da8d44d941ad0249b408bebe5, type: 2}
      propertyPath: m_LocalRotation.z
      value: 0
      objectReference: {fileID: 0}
    - target: {fileID: 4630888335494662, guid: 0bd5fd9da8d44d941ad0249b408bebe5, type: 2}
      propertyPath: m_LocalRotation.w
      value: 1
      objectReference: {fileID: 0}
    - target: {fileID: 4630888335494662, guid: 0bd5fd9da8d44d941ad0249b408bebe5, type: 2}
      propertyPath: m_RootOrder
      value: 7
      objectReference: {fileID: 0}
    m_RemovedComponents: []
  m_ParentPrefab: {fileID: 100100000, guid: 0bd5fd9da8d44d941ad0249b408bebe5, type: 2}
  m_IsPrefabParent: 0
--- !u!1001 &372873385
Prefab:
  m_ObjectHideFlags: 0
  serializedVersion: 2
  m_Modification:
    m_TransformParent: {fileID: 0}
    m_Modifications:
    - target: {fileID: 4084527754618998, guid: b177415515e4c90468bdfea8f7a6c81c, type: 2}
      propertyPath: m_LocalPosition.x
      value: -116.0391
      objectReference: {fileID: 0}
    - target: {fileID: 4084527754618998, guid: b177415515e4c90468bdfea8f7a6c81c, type: 2}
      propertyPath: m_LocalPosition.y
      value: -39.706608
      objectReference: {fileID: 0}
    - target: {fileID: 4084527754618998, guid: b177415515e4c90468bdfea8f7a6c81c, type: 2}
      propertyPath: m_LocalPosition.z
      value: 0
      objectReference: {fileID: 0}
    - target: {fileID: 4084527754618998, guid: b177415515e4c90468bdfea8f7a6c81c, type: 2}
      propertyPath: m_LocalRotation.x
      value: 0
      objectReference: {fileID: 0}
    - target: {fileID: 4084527754618998, guid: b177415515e4c90468bdfea8f7a6c81c, type: 2}
      propertyPath: m_LocalRotation.y
      value: 1
      objectReference: {fileID: 0}
    - target: {fileID: 4084527754618998, guid: b177415515e4c90468bdfea8f7a6c81c, type: 2}
      propertyPath: m_LocalRotation.z
      value: 0
      objectReference: {fileID: 0}
    - target: {fileID: 4084527754618998, guid: b177415515e4c90468bdfea8f7a6c81c, type: 2}
      propertyPath: m_LocalRotation.w
      value: 0
      objectReference: {fileID: 0}
    - target: {fileID: 4084527754618998, guid: b177415515e4c90468bdfea8f7a6c81c, type: 2}
      propertyPath: m_RootOrder
      value: 2
      objectReference: {fileID: 0}
    - target: {fileID: 114000854825747586, guid: b177415515e4c90468bdfea8f7a6c81c,
        type: 2}
      propertyPath: VictoryPanel
      value: 
      objectReference: {fileID: 772712199}
    - target: {fileID: 114000854825747586, guid: b177415515e4c90468bdfea8f7a6c81c,
        type: 2}
      propertyPath: goldTimer
      value: 10
      objectReference: {fileID: 0}
    - target: {fileID: 114000854825747586, guid: b177415515e4c90468bdfea8f7a6c81c,
        type: 2}
      propertyPath: silverTimer
      value: 14
      objectReference: {fileID: 0}
    m_RemovedComponents: []
  m_ParentPrefab: {fileID: 100100000, guid: b177415515e4c90468bdfea8f7a6c81c, type: 2}
  m_IsPrefabParent: 0
--- !u!1001 &503999727
Prefab:
  m_ObjectHideFlags: 0
  serializedVersion: 2
  m_Modification:
    m_TransformParent: {fileID: 0}
    m_Modifications:
    - target: {fileID: 4407255687235444, guid: dd9012db7e0468f4aae36733c4f87412, type: 2}
      propertyPath: m_LocalPosition.x
      value: -53.94
      objectReference: {fileID: 0}
    - target: {fileID: 4407255687235444, guid: dd9012db7e0468f4aae36733c4f87412, type: 2}
      propertyPath: m_LocalPosition.y
      value: 39.23
      objectReference: {fileID: 0}
    - target: {fileID: 4407255687235444, guid: dd9012db7e0468f4aae36733c4f87412, type: 2}
      propertyPath: m_LocalPosition.z
      value: 0
      objectReference: {fileID: 0}
    - target: {fileID: 4407255687235444, guid: dd9012db7e0468f4aae36733c4f87412, type: 2}
      propertyPath: m_LocalRotation.x
      value: -0
      objectReference: {fileID: 0}
    - target: {fileID: 4407255687235444, guid: dd9012db7e0468f4aae36733c4f87412, type: 2}
      propertyPath: m_LocalRotation.y
      value: -0
      objectReference: {fileID: 0}
    - target: {fileID: 4407255687235444, guid: dd9012db7e0468f4aae36733c4f87412, type: 2}
      propertyPath: m_LocalRotation.z
      value: 0.6066901
      objectReference: {fileID: 0}
    - target: {fileID: 4407255687235444, guid: dd9012db7e0468f4aae36733c4f87412, type: 2}
      propertyPath: m_LocalRotation.w
      value: 0.79493845
      objectReference: {fileID: 0}
    - target: {fileID: 4407255687235444, guid: dd9012db7e0468f4aae36733c4f87412, type: 2}
      propertyPath: m_RootOrder
      value: 8
      objectReference: {fileID: 0}
    - target: {fileID: 4407255687235444, guid: dd9012db7e0468f4aae36733c4f87412, type: 2}
      propertyPath: m_LocalScale.y
      value: 1.1429545
      objectReference: {fileID: 0}
    - target: {fileID: 1993432542157820, guid: dd9012db7e0468f4aae36733c4f87412, type: 2}
      propertyPath: m_Name
      value: plank_long_horizontal (1)
      objectReference: {fileID: 0}
    - target: {fileID: 4407255687235444, guid: dd9012db7e0468f4aae36733c4f87412, type: 2}
      propertyPath: m_LocalEulerAnglesHint.z
      value: 74.701004
      objectReference: {fileID: 0}
    - target: {fileID: 4407255687235444, guid: dd9012db7e0468f4aae36733c4f87412, type: 2}
      propertyPath: m_LocalScale.x
      value: 1.6623807
      objectReference: {fileID: 0}
    m_RemovedComponents: []
  m_ParentPrefab: {fileID: 100100000, guid: dd9012db7e0468f4aae36733c4f87412, type: 2}
  m_IsPrefabParent: 0
--- !u!1001 &606117259
Prefab:
  m_ObjectHideFlags: 0
  serializedVersion: 2
  m_Modification:
    m_TransformParent: {fileID: 0}
    m_Modifications:
    - target: {fileID: 4124273814582926, guid: 2a011d5c1d756334ca5dda8429647983, type: 2}
      propertyPath: m_LocalPosition.x
      value: 0.44
      objectReference: {fileID: 0}
    - target: {fileID: 4124273814582926, guid: 2a011d5c1d756334ca5dda8429647983, type: 2}
      propertyPath: m_LocalPosition.y
      value: -0.39
      objectReference: {fileID: 0}
    - target: {fileID: 4124273814582926, guid: 2a011d5c1d756334ca5dda8429647983, type: 2}
      propertyPath: m_LocalPosition.z
      value: 0
      objectReference: {fileID: 0}
    - target: {fileID: 4124273814582926, guid: 2a011d5c1d756334ca5dda8429647983, type: 2}
      propertyPath: m_LocalRotation.x
      value: -0
      objectReference: {fileID: 0}
    - target: {fileID: 4124273814582926, guid: 2a011d5c1d756334ca5dda8429647983, type: 2}
      propertyPath: m_LocalRotation.y
      value: -0
      objectReference: {fileID: 0}
    - target: {fileID: 4124273814582926, guid: 2a011d5c1d756334ca5dda8429647983, type: 2}
      propertyPath: m_LocalRotation.z
      value: -0
      objectReference: {fileID: 0}
    - target: {fileID: 4124273814582926, guid: 2a011d5c1d756334ca5dda8429647983, type: 2}
      propertyPath: m_LocalRotation.w
      value: 1
      objectReference: {fileID: 0}
    - target: {fileID: 4124273814582926, guid: 2a011d5c1d756334ca5dda8429647983, type: 2}
      propertyPath: m_RootOrder
      value: 13
      objectReference: {fileID: 0}
    - target: {fileID: 4124273814582926, guid: 2a011d5c1d756334ca5dda8429647983, type: 2}
      propertyPath: m_LocalScale.x
      value: 3.8
      objectReference: {fileID: 0}
    - target: {fileID: 4124273814582926, guid: 2a011d5c1d756334ca5dda8429647983, type: 2}
      propertyPath: m_LocalScale.y
      value: 3.8
      objectReference: {fileID: 0}
    - target: {fileID: 4124273814582926, guid: 2a011d5c1d756334ca5dda8429647983, type: 2}
      propertyPath: m_LocalScale.z
      value: 0
      objectReference: {fileID: 0}
    m_RemovedComponents: []
  m_ParentPrefab: {fileID: 100100000, guid: 2a011d5c1d756334ca5dda8429647983, type: 2}
  m_IsPrefabParent: 0
--- !u!1001 &771707323
Prefab:
  m_ObjectHideFlags: 0
  serializedVersion: 2
  m_Modification:
    m_TransformParent: {fileID: 0}
    m_Modifications:
    - target: {fileID: 4008134824265050, guid: 5dc5e750cf268434b844186466a552cf, type: 2}
      propertyPath: m_LocalPosition.x
      value: -0.37
      objectReference: {fileID: 0}
    - target: {fileID: 4008134824265050, guid: 5dc5e750cf268434b844186466a552cf, type: 2}
      propertyPath: m_LocalPosition.y
      value: -68.26
      objectReference: {fileID: 0}
    - target: {fileID: 4008134824265050, guid: 5dc5e750cf268434b844186466a552cf, type: 2}
      propertyPath: m_LocalPosition.z
      value: 0
      objectReference: {fileID: 0}
    - target: {fileID: 4008134824265050, guid: 5dc5e750cf268434b844186466a552cf, type: 2}
      propertyPath: m_LocalRotation.x
      value: 0
      objectReference: {fileID: 0}
    - target: {fileID: 4008134824265050, guid: 5dc5e750cf268434b844186466a552cf, type: 2}
      propertyPath: m_LocalRotation.y
      value: 0
      objectReference: {fileID: 0}
    - target: {fileID: 4008134824265050, guid: 5dc5e750cf268434b844186466a552cf, type: 2}
      propertyPath: m_LocalRotation.z
      value: -0.7071068
      objectReference: {fileID: 0}
    - target: {fileID: 4008134824265050, guid: 5dc5e750cf268434b844186466a552cf, type: 2}
      propertyPath: m_LocalRotation.w
      value: 0.7071068
      objectReference: {fileID: 0}
    - target: {fileID: 4008134824265050, guid: 5dc5e750cf268434b844186466a552cf, type: 2}
      propertyPath: m_RootOrder
      value: 15
      objectReference: {fileID: 0}
    - target: {fileID: 4008134824265050, guid: 5dc5e750cf268434b844186466a552cf, type: 2}
      propertyPath: m_LocalScale.y
      value: 1.554431
      objectReference: {fileID: 0}
    - target: {fileID: 4008134824265050, guid: 5dc5e750cf268434b844186466a552cf, type: 2}
      propertyPath: m_LocalScale.x
      value: 1.0630361
      objectReference: {fileID: 0}
    - target: {fileID: 1262576074628054, guid: 5dc5e750cf268434b844186466a552cf, type: 2}
      propertyPath: m_Name
      value: plank_normal_horizontal (4)
      objectReference: {fileID: 0}
    - target: {fileID: 4008134824265050, guid: 5dc5e750cf268434b844186466a552cf, type: 2}
      propertyPath: m_LocalEulerAnglesHint.z
      value: -90
      objectReference: {fileID: 0}
    m_RemovedComponents: []
  m_ParentPrefab: {fileID: 100100000, guid: 5dc5e750cf268434b844186466a552cf, type: 2}
  m_IsPrefabParent: 0
--- !u!1001 &772712198
Prefab:
  m_ObjectHideFlags: 0
  serializedVersion: 2
  m_Modification:
    m_TransformParent: {fileID: 0}
    m_Modifications:
    - target: {fileID: 224015993560192712, guid: 0b724a29602625f4b9282b0b3a5e5363,
        type: 2}
      propertyPath: m_LocalPosition.x
      value: 0
      objectReference: {fileID: 0}
    - target: {fileID: 224015993560192712, guid: 0b724a29602625f4b9282b0b3a5e5363,
        type: 2}
      propertyPath: m_LocalPosition.y
      value: 0
      objectReference: {fileID: 0}
    - target: {fileID: 224015993560192712, guid: 0b724a29602625f4b9282b0b3a5e5363,
        type: 2}
      propertyPath: m_LocalPosition.z
      value: 0
      objectReference: {fileID: 0}
    - target: {fileID: 224015993560192712, guid: 0b724a29602625f4b9282b0b3a5e5363,
        type: 2}
      propertyPath: m_LocalRotation.x
      value: 0
      objectReference: {fileID: 0}
    - target: {fileID: 224015993560192712, guid: 0b724a29602625f4b9282b0b3a5e5363,
        type: 2}
      propertyPath: m_LocalRotation.y
      value: 0
      objectReference: {fileID: 0}
    - target: {fileID: 224015993560192712, guid: 0b724a29602625f4b9282b0b3a5e5363,
        type: 2}
      propertyPath: m_LocalRotation.z
      value: 0
      objectReference: {fileID: 0}
    - target: {fileID: 224015993560192712, guid: 0b724a29602625f4b9282b0b3a5e5363,
        type: 2}
      propertyPath: m_LocalRotation.w
      value: 1
      objectReference: {fileID: 0}
    - target: {fileID: 224015993560192712, guid: 0b724a29602625f4b9282b0b3a5e5363,
        type: 2}
      propertyPath: m_RootOrder
      value: 6
      objectReference: {fileID: 0}
    - target: {fileID: 224015993560192712, guid: 0b724a29602625f4b9282b0b3a5e5363,
        type: 2}
      propertyPath: m_AnchoredPosition.x
      value: 0
      objectReference: {fileID: 0}
    - target: {fileID: 224015993560192712, guid: 0b724a29602625f4b9282b0b3a5e5363,
        type: 2}
      propertyPath: m_AnchoredPosition.y
      value: 0
      objectReference: {fileID: 0}
    - target: {fileID: 224015993560192712, guid: 0b724a29602625f4b9282b0b3a5e5363,
        type: 2}
      propertyPath: m_SizeDelta.x
      value: 0
      objectReference: {fileID: 0}
    - target: {fileID: 224015993560192712, guid: 0b724a29602625f4b9282b0b3a5e5363,
        type: 2}
      propertyPath: m_SizeDelta.y
      value: 0
      objectReference: {fileID: 0}
    - target: {fileID: 224015993560192712, guid: 0b724a29602625f4b9282b0b3a5e5363,
        type: 2}
      propertyPath: m_AnchorMin.x
      value: 0
      objectReference: {fileID: 0}
    - target: {fileID: 224015993560192712, guid: 0b724a29602625f4b9282b0b3a5e5363,
        type: 2}
      propertyPath: m_AnchorMin.y
      value: 0
      objectReference: {fileID: 0}
    - target: {fileID: 224015993560192712, guid: 0b724a29602625f4b9282b0b3a5e5363,
        type: 2}
      propertyPath: m_AnchorMax.x
      value: 0
      objectReference: {fileID: 0}
    - target: {fileID: 224015993560192712, guid: 0b724a29602625f4b9282b0b3a5e5363,
        type: 2}
      propertyPath: m_AnchorMax.y
      value: 0
      objectReference: {fileID: 0}
    - target: {fileID: 224015993560192712, guid: 0b724a29602625f4b9282b0b3a5e5363,
        type: 2}
      propertyPath: m_Pivot.x
      value: 0
      objectReference: {fileID: 0}
    - target: {fileID: 224015993560192712, guid: 0b724a29602625f4b9282b0b3a5e5363,
        type: 2}
      propertyPath: m_Pivot.y
      value: 0
      objectReference: {fileID: 0}
    m_RemovedComponents: []
  m_ParentPrefab: {fileID: 100100000, guid: 0b724a29602625f4b9282b0b3a5e5363, type: 2}
  m_IsPrefabParent: 0
--- !u!1 &772712199 stripped
GameObject:
  m_PrefabParentObject: {fileID: 1365337679995470, guid: 0b724a29602625f4b9282b0b3a5e5363,
    type: 2}
  m_PrefabInternal: {fileID: 772712198}
--- !u!1001 &801033298
Prefab:
  m_ObjectHideFlags: 0
  serializedVersion: 2
  m_Modification:
    m_TransformParent: {fileID: 0}
    m_Modifications:
    - target: {fileID: 4008134824265050, guid: 5dc5e750cf268434b844186466a552cf, type: 2}
      propertyPath: m_LocalPosition.x
      value: -117.35
      objectReference: {fileID: 0}
    - target: {fileID: 4008134824265050, guid: 5dc5e750cf268434b844186466a552cf, type: 2}
      propertyPath: m_LocalPosition.y
      value: -57.7
      objectReference: {fileID: 0}
    - target: {fileID: 4008134824265050, guid: 5dc5e750cf268434b844186466a552cf, type: 2}
      propertyPath: m_LocalPosition.z
      value: 0
      objectReference: {fileID: 0}
    - target: {fileID: 4008134824265050, guid: 5dc5e750cf268434b844186466a552cf, type: 2}
      propertyPath: m_LocalRotation.x
      value: 0
      objectReference: {fileID: 0}
    - target: {fileID: 4008134824265050, guid: 5dc5e750cf268434b844186466a552cf, type: 2}
      propertyPath: m_LocalRotation.y
      value: 0
      objectReference: {fileID: 0}
    - target: {fileID: 4008134824265050, guid: 5dc5e750cf268434b844186466a552cf, type: 2}
      propertyPath: m_LocalRotation.z
      value: 0.7071068
      objectReference: {fileID: 0}
    - target: {fileID: 4008134824265050, guid: 5dc5e750cf268434b844186466a552cf, type: 2}
      propertyPath: m_LocalRotation.w
      value: 0.7071068
      objectReference: {fileID: 0}
    - target: {fileID: 4008134824265050, guid: 5dc5e750cf268434b844186466a552cf, type: 2}
      propertyPath: m_RootOrder
      value: 11
      objectReference: {fileID: 0}
    - target: {fileID: 4008134824265050, guid: 5dc5e750cf268434b844186466a552cf, type: 2}
      propertyPath: m_LocalScale.y
      value: 1.554431
      objectReference: {fileID: 0}
    - target: {fileID: 4008134824265050, guid: 5dc5e750cf268434b844186466a552cf, type: 2}
      propertyPath: m_LocalScale.x
      value: 1.0630361
      objectReference: {fileID: 0}
    - target: {fileID: 1262576074628054, guid: 5dc5e750cf268434b844186466a552cf, type: 2}
      propertyPath: m_Name
      value: plank_normal_horizontal (3)
      objectReference: {fileID: 0}
    m_RemovedComponents: []
  m_ParentPrefab: {fileID: 100100000, guid: 5dc5e750cf268434b844186466a552cf, type: 2}
  m_IsPrefabParent: 0
--- !u!1001 &826751282
Prefab:
  m_ObjectHideFlags: 0
  serializedVersion: 2
  m_Modification:
    m_TransformParent: {fileID: 0}
    m_Modifications:
    - target: {fileID: 4327592595353232, guid: 7eb190736d9088147aeed53277d28fe5, type: 2}
      propertyPath: m_LocalPosition.x
      value: -132.58
      objectReference: {fileID: 0}
    - target: {fileID: 4327592595353232, guid: 7eb190736d9088147aeed53277d28fe5, type: 2}
      propertyPath: m_LocalPosition.y
      value: 76.4
      objectReference: {fileID: 0}
    - target: {fileID: 4327592595353232, guid: 7eb190736d9088147aeed53277d28fe5, type: 2}
      propertyPath: m_LocalPosition.z
      value: 0
      objectReference: {fileID: 0}
    - target: {fileID: 4327592595353232, guid: 7eb190736d9088147aeed53277d28fe5, type: 2}
      propertyPath: m_LocalRotation.x
      value: 0
      objectReference: {fileID: 0}
    - target: {fileID: 4327592595353232, guid: 7eb190736d9088147aeed53277d28fe5, type: 2}
      propertyPath: m_LocalRotation.y
      value: 0
      objectReference: {fileID: 0}
    - target: {fileID: 4327592595353232, guid: 7eb190736d9088147aeed53277d28fe5, type: 2}
      propertyPath: m_LocalRotation.z
      value: 0
      objectReference: {fileID: 0}
    - target: {fileID: 4327592595353232, guid: 7eb190736d9088147aeed53277d28fe5, type: 2}
      propertyPath: m_LocalRotation.w
      value: 1
      objectReference: {fileID: 0}
    - target: {fileID: 4327592595353232, guid: 7eb190736d9088147aeed53277d28fe5, type: 2}
      propertyPath: m_RootOrder
      value: 5
      objectReference: {fileID: 0}
    - target: {fileID: 4327592595353232, guid: 7eb190736d9088147aeed53277d28fe5, type: 2}
      propertyPath: m_LocalScale.y
      value: 1.4751494
      objectReference: {fileID: 0}
    - target: {fileID: 4327592595353232, guid: 7eb190736d9088147aeed53277d28fe5, type: 2}
      propertyPath: m_LocalScale.x
      value: 2.1942744
      objectReference: {fileID: 0}
    m_RemovedComponents: []
  m_ParentPrefab: {fileID: 100100000, guid: 7eb190736d9088147aeed53277d28fe5, type: 2}
  m_IsPrefabParent: 0
--- !u!1001 &1007351603
Prefab:
  m_ObjectHideFlags: 0
  serializedVersion: 2
  m_Modification:
    m_TransformParent: {fileID: 0}
    m_Modifications:
    - target: {fileID: 4304294868556100, guid: 91a43065e8140764daeaae612277c68e, type: 2}
      propertyPath: m_LocalPosition.x
      value: 0
      objectReference: {fileID: 0}
    - target: {fileID: 4304294868556100, guid: 91a43065e8140764daeaae612277c68e, type: 2}
      propertyPath: m_LocalPosition.y
      value: 0
      objectReference: {fileID: 0}
    - target: {fileID: 4304294868556100, guid: 91a43065e8140764daeaae612277c68e, type: 2}
      propertyPath: m_LocalPosition.z
      value: 0
      objectReference: {fileID: 0}
    - target: {fileID: 4304294868556100, guid: 91a43065e8140764daeaae612277c68e, type: 2}
      propertyPath: m_LocalRotation.x
      value: 0
      objectReference: {fileID: 0}
    - target: {fileID: 4304294868556100, guid: 91a43065e8140764daeaae612277c68e, type: 2}
      propertyPath: m_LocalRotation.y
      value: 0
      objectReference: {fileID: 0}
    - target: {fileID: 4304294868556100, guid: 91a43065e8140764daeaae612277c68e, type: 2}
      propertyPath: m_LocalRotation.z
      value: 0
      objectReference: {fileID: 0}
    - target: {fileID: 4304294868556100, guid: 91a43065e8140764daeaae612277c68e, type: 2}
      propertyPath: m_LocalRotation.w
      value: 1
      objectReference: {fileID: 0}
    - target: {fileID: 4304294868556100, guid: 91a43065e8140764daeaae612277c68e, type: 2}
      propertyPath: m_RootOrder
      value: 12
      objectReference: {fileID: 0}
    - target: {fileID: 82155957781061928, guid: 91a43065e8140764daeaae612277c68e,
        type: 2}
      propertyPath: m_Volume
      value: 0.7
      objectReference: {fileID: 0}
    - target: {fileID: 82155957781061928, guid: 91a43065e8140764daeaae612277c68e,
        type: 2}
      propertyPath: m_audioClip
      value: 
      objectReference: {fileID: 8300000, guid: b8a10dfc9a4092c45a0a95fc0ae9152c, type: 3}
    m_RemovedComponents: []
  m_ParentPrefab: {fileID: 100100000, guid: 91a43065e8140764daeaae612277c68e, type: 2}
  m_IsPrefabParent: 0
--- !u!1001 &1404434331
Prefab:
  m_ObjectHideFlags: 0
  serializedVersion: 2
  m_Modification:
    m_TransformParent: {fileID: 0}
    m_Modifications:
    - target: {fileID: 4407255687235444, guid: dd9012db7e0468f4aae36733c4f87412, type: 2}
      propertyPath: m_LocalPosition.x
      value: -103.6
      objectReference: {fileID: 0}
    - target: {fileID: 4407255687235444, guid: dd9012db7e0468f4aae36733c4f87412, type: 2}
      propertyPath: m_LocalPosition.y
      value: 45.83
      objectReference: {fileID: 0}
    - target: {fileID: 4407255687235444, guid: dd9012db7e0468f4aae36733c4f87412, type: 2}
      propertyPath: m_LocalPosition.z
      value: 0
      objectReference: {fileID: 0}
    - target: {fileID: 4407255687235444, guid: dd9012db7e0468f4aae36733c4f87412, type: 2}
      propertyPath: m_LocalRotation.x
      value: 0
      objectReference: {fileID: 0}
    - target: {fileID: 4407255687235444, guid: dd9012db7e0468f4aae36733c4f87412, type: 2}
      propertyPath: m_LocalRotation.y
      value: 0
      objectReference: {fileID: 0}
    - target: {fileID: 4407255687235444, guid: dd9012db7e0468f4aae36733c4f87412, type: 2}
      propertyPath: m_LocalRotation.z
      value: 0.7071068
      objectReference: {fileID: 0}
    - target: {fileID: 4407255687235444, guid: dd9012db7e0468f4aae36733c4f87412, type: 2}
      propertyPath: m_LocalRotation.w
      value: 0.7071068
      objectReference: {fileID: 0}
    - target: {fileID: 4407255687235444, guid: dd9012db7e0468f4aae36733c4f87412, type: 2}
      propertyPath: m_RootOrder
      value: 4
      objectReference: {fileID: 0}
    - target: {fileID: 4407255687235444, guid: dd9012db7e0468f4aae36733c4f87412, type: 2}
      propertyPath: m_LocalScale.y
      value: 1.1429545
      objectReference: {fileID: 0}
    - target: {fileID: 4407255687235444, guid: dd9012db7e0468f4aae36733c4f87412, type: 2}
      propertyPath: m_LocalScale.x
      value: 1.7048911
      objectReference: {fileID: 0}
    m_RemovedComponents: []
  m_ParentPrefab: {fileID: 100100000, guid: dd9012db7e0468f4aae36733c4f87412, type: 2}
  m_IsPrefabParent: 0
--- !u!1001 &1528899983
Prefab:
  m_ObjectHideFlags: 0
  serializedVersion: 2
  m_Modification:
    m_TransformParent: {fileID: 0}
    m_Modifications:
    - target: {fileID: 4008134824265050, guid: 5dc5e750cf268434b844186466a552cf, type: 2}
      propertyPath: m_LocalPosition.x
      value: -38.59
      objectReference: {fileID: 0}
    - target: {fileID: 4008134824265050, guid: 5dc5e750cf268434b844186466a552cf, type: 2}
      propertyPath: m_LocalPosition.y
      value: -68.3
      objectReference: {fileID: 0}
    - target: {fileID: 4008134824265050, guid: 5dc5e750cf268434b844186466a552cf, type: 2}
      propertyPath: m_LocalPosition.z
      value: 0
      objectReference: {fileID: 0}
    - target: {fileID: 4008134824265050, guid: 5dc5e750cf268434b844186466a552cf, type: 2}
      propertyPath: m_LocalRotation.x
      value: 0
      objectReference: {fileID: 0}
    - target: {fileID: 4008134824265050, guid: 5dc5e750cf268434b844186466a552cf, type: 2}
      propertyPath: m_LocalRotation.y
      value: 0
      objectReference: {fileID: 0}
    - target: {fileID: 4008134824265050, guid: 5dc5e750cf268434b844186466a552cf, type: 2}
      propertyPath: m_LocalRotation.z
      value: 0.7071068
      objectReference: {fileID: 0}
    - target: {fileID: 4008134824265050, guid: 5dc5e750cf268434b844186466a552cf, type: 2}
      propertyPath: m_LocalRotation.w
      value: 0.7071068
      objectReference: {fileID: 0}
    - target: {fileID: 4008134824265050, guid: 5dc5e750cf268434b844186466a552cf, type: 2}
      propertyPath: m_RootOrder
      value: 10
      objectReference: {fileID: 0}
    - target: {fileID: 4008134824265050, guid: 5dc5e750cf268434b844186466a552cf, type: 2}
      propertyPath: m_LocalScale.y
      value: 1.554431
      objectReference: {fileID: 0}
    - target: {fileID: 4008134824265050, guid: 5dc5e750cf268434b844186466a552cf, type: 2}
      propertyPath: m_LocalScale.x
      value: 1.0630361
      objectReference: {fileID: 0}
    - target: {fileID: 1262576074628054, guid: 5dc5e750cf268434b844186466a552cf, type: 2}
      propertyPath: m_Name
      value: plank_normal_horizontal (2)
      objectReference: {fileID: 0}
    m_RemovedComponents: []
  m_ParentPrefab: {fileID: 100100000, guid: 5dc5e750cf268434b844186466a552cf, type: 2}
  m_IsPrefabParent: 0
--- !u!1001 &1648370755
Prefab:
  m_ObjectHideFlags: 0
  serializedVersion: 2
  m_Modification:
    m_TransformParent: {fileID: 0}
    m_Modifications:
    - target: {fileID: 4407255687235444, guid: dd9012db7e0468f4aae36733c4f87412, type: 2}
      propertyPath: m_LocalPosition.x
      value: -10.67
      objectReference: {fileID: 0}
    - target: {fileID: 4407255687235444, guid: dd9012db7e0468f4aae36733c4f87412, type: 2}
      propertyPath: m_LocalPosition.y
      value: 27.36
      objectReference: {fileID: 0}
    - target: {fileID: 4407255687235444, guid: dd9012db7e0468f4aae36733c4f87412, type: 2}
      propertyPath: m_LocalPosition.z
      value: 0
      objectReference: {fileID: 0}
    - target: {fileID: 4407255687235444, guid: dd9012db7e0468f4aae36733c4f87412, type: 2}
      propertyPath: m_LocalRotation.x
      value: -0
      objectReference: {fileID: 0}
    - target: {fileID: 4407255687235444, guid: dd9012db7e0468f4aae36733c4f87412, type: 2}
      propertyPath: m_LocalRotation.y
      value: -0
      objectReference: {fileID: 0}
    - target: {fileID: 4407255687235444, guid: dd9012db7e0468f4aae36733c4f87412, type: 2}
      propertyPath: m_LocalRotation.z
      value: 0.6066901
      objectReference: {fileID: 0}
    - target: {fileID: 4407255687235444, guid: dd9012db7e0468f4aae36733c4f87412, type: 2}
      propertyPath: m_LocalRotation.w
      value: 0.79493845
      objectReference: {fileID: 0}
    - target: {fileID: 4407255687235444, guid: dd9012db7e0468f4aae36733c4f87412, type: 2}
      propertyPath: m_RootOrder
      value: 9
      objectReference: {fileID: 0}
    - target: {fileID: 4407255687235444, guid: dd9012db7e0468f4aae36733c4f87412, type: 2}
      propertyPath: m_LocalScale.y
      value: 0.879707
      objectReference: {fileID: 0}
    - target: {fileID: 1993432542157820, guid: dd9012db7e0468f4aae36733c4f87412, type: 2}
      propertyPath: m_Name
      value: plank_long_horizontal (2)
      objectReference: {fileID: 0}
    - target: {fileID: 4407255687235444, guid: dd9012db7e0468f4aae36733c4f87412, type: 2}
      propertyPath: m_LocalEulerAnglesHint.z
      value: 74.701004
      objectReference: {fileID: 0}
    - target: {fileID: 4407255687235444, guid: dd9012db7e0468f4aae36733c4f87412, type: 2}
      propertyPath: m_LocalScale.x
      value: 1.6623807
      objectReference: {fileID: 0}
    m_RemovedComponents: []
  m_ParentPrefab: {fileID: 100100000, guid: dd9012db7e0468f4aae36733c4f87412, type: 2}
  m_IsPrefabParent: 0
--- !u!1001 &1829024979
Prefab:
  m_ObjectHideFlags: 0
  serializedVersion: 2
  m_Modification:
    m_TransformParent: {fileID: 0}
    m_Modifications:
    - target: {fileID: 4008134824265050, guid: 5dc5e750cf268434b844186466a552cf, type: 2}
      propertyPath: m_LocalPosition.x
      value: 80.49
      objectReference: {fileID: 0}
    - target: {fileID: 4008134824265050, guid: 5dc5e750cf268434b844186466a552cf, type: 2}
      propertyPath: m_LocalPosition.y
      value: -35.8
      objectReference: {fileID: 0}
    - target: {fileID: 4008134824265050, guid: 5dc5e750cf268434b844186466a552cf, type: 2}
      propertyPath: m_LocalPosition.z
      value: 0
      objectReference: {fileID: 0}
    - target: {fileID: 4008134824265050, guid: 5dc5e750cf268434b844186466a552cf, type: 2}
      propertyPath: m_LocalRotation.x
      value: 0
      objectReference: {fileID: 0}
    - target: {fileID: 4008134824265050, guid: 5dc5e750cf268434b844186466a552cf, type: 2}
      propertyPath: m_LocalRotation.y
      value: 0
      objectReference: {fileID: 0}
    - target: {fileID: 4008134824265050, guid: 5dc5e750cf268434b844186466a552cf, type: 2}
      propertyPath: m_LocalRotation.z
      value: 0.7071068
      objectReference: {fileID: 0}
    - target: {fileID: 4008134824265050, guid: 5dc5e750cf268434b844186466a552cf, type: 2}
      propertyPath: m_LocalRotation.w
      value: 0.7071068
      objectReference: {fileID: 0}
    - target: {fileID: 4008134824265050, guid: 5dc5e750cf268434b844186466a552cf, type: 2}
      propertyPath: m_RootOrder
      value: 1
      objectReference: {fileID: 0}
    - target: {fileID: 4008134824265050, guid: 5dc5e750cf268434b844186466a552cf, type: 2}
      propertyPath: m_LocalScale.y
      value: 1.554431
      objectReference: {fileID: 0}
    - target: {fileID: 4008134824265050, guid: 5dc5e750cf268434b844186466a552cf, type: 2}
      propertyPath: m_LocalScale.x
      value: 1.0630361
      objectReference: {fileID: 0}
    m_RemovedComponents: []
  m_ParentPrefab: {fileID: 100100000, guid: 5dc5e750cf268434b844186466a552cf, type: 2}
  m_IsPrefabParent: 0
