%YAML 1.1
%TAG !u! tag:unity3d.com,2011:
--- !u!1045 &1
EditorBuildSettings:
  m_ObjectHideFlags: 0
  serializedVersion: 2
  m_Scenes:
  - enabled: 1
    path: Assets/Scenes/_MAINMENU.unity
    guid: acece7588a54a304f9c3804350829422
  - enabled: 1
    path: Assets/Scenes/Levels/Level1.unity
    guid: 926781d212bab2f419eb8031908a3b5a
  - enabled: 1
    path: Assets/Scenes/Levels/Level2.unity
    guid: 95669393aaff2c0449d59e902a2e5a6e
  - enabled: 1
    path: Assets/Scenes/Levels/Level3.unity
    guid: 20a040d3863b3ae44a167dc93c610d46
  - enabled: 1
    path: Assets/Scenes/Levels/Level4.unity
    guid: c74cc366af26e7240bb11f8670587984
  - enabled: 1
    path: Assets/Scenes/Levels/Level5.unity
    guid: 3ea677becc8a6dd45993c756515ce952
  - enabled: 1
    path: Assets/Scenes/Levels/Level6.unity
    guid: f98d8e796dcadf947b0bda00e4b5a2cd
  - enabled: 1
    path: Assets/Scenes/Levels/Level7.unity
    guid: 9957917845bc0f443bacf5cd40639777
  - enabled: 1
    path: Assets/Scenes/Levels/Level8.unity
    guid: 83175e6b9998a5a499dff9253dea2ca6
  - enabled: 1
    path: Assets/Scenes/Levels/Level9.unity
    guid: 1ea9433a44796c541b193ac6f5ebcd0a
  - enabled: 1
    path: Assets/Scenes/Levels/Level10.unity
    guid: 562b6d20aebdd6b4581ed711e39fbd73
  - enabled: 1
    path: Assets/Scenes/Levels/Level11.unity
    guid: 64637ec31aee2b54da4041548e9df252
  - enabled: 1
    path: Assets/Scenes/Levels/Level12.unity
    guid: 96e6513bafcccd542ae5e8de209b49f0
  - enabled: 1
    path: Assets/Scenes/Levels/Level13.unity
    guid: bf711ddc241f7714ab361c1533a454b9
  - enabled: 1
    path: Assets/Scenes/Levels/Level14.unity
    guid: 312df43981d8b454fbf2cf64e50930a6
  - enabled: 1
    path: Assets/Scenes/Levels/Level15.unity
    guid: a23815724840b8843b7eaedfa10409c4
  - enabled: 1
    path: Assets/Scenes/Levels/Level16.unity
    guid: 899660ee08dc5414da5fde6b409ca964
  - enabled: 1
    path: Assets/Scenes/Levels/Level17.unity
    guid: a54a7c9962f53874bb31d07d7c9e1a60
  - enabled: 1
    path: Assets/Scenes/Levels/Level18.unity
    guid: 2a3e8b0645f224943bbbc9dac234a354
  - enabled: 1
    path: Assets/Scenes/Levels/Level19.unity
    guid: 15efa5d65953e7749b7fc0938cc7f9a7
  - enabled: 1
    path: Assets/Scenes/Levels/Level20.unity
    guid: 12e04d81479272743a383549d5c96348
  - enabled: 1
    path: Assets/Scenes/Levels/Level21.unity
    guid: 72146ade2e25f3d479009638a7e0040b
  - enabled: 1
    path: Assets/Scenes/Levels/Level22.unity
    guid: def6a1ffdeb8b7b459c7a4fa95719205
  - enabled: 1
    path: Assets/Scenes/Levels/Level23.unity
    guid: 3c7ebb4ba6746664489e003d474d089d
  - enabled: 1
    path: Assets/Scenes/Levels/Level24.unity
    guid: 91770e44941ed9c4c8f75945d4840ddb
  - enabled: 1
    path: Assets/Scenes/Levels/Level25.unity
    guid: 6fbfd4843791f8246a106272badd6117
  - enabled: 1
    path: Assets/Scenes/Levels/Level26.unity
    guid: 02ddcb599be60c844beb6a8209753593
  - enabled: 1
    path: Assets/Scenes/Levels/Level27.unity
    guid: 2df51aff72d121b40a5776e0aa8e6e5d
  - enabled: 1
    path: Assets/Scenes/Levels/Level28.unity
    guid: c824440c93273d948a4ac13fc00c2389
  - enabled: 1
    path: Assets/Scenes/Levels/Level29.unity
    guid: c643a615e5994c6448259777a68c0892
  - enabled: 1
    path: Assets/Scenes/Levels/Level30.unity
    guid: 0fbcd132749e9b04884442a392165eba
  - enabled: 1
    path: Assets/Scenes/Levels/Level31.unity
    guid: 1995de5ddbffbee488e5e7097c6d9edc
  - enabled: 1
    path: Assets/Scenes/Levels/Level32.unity
    guid: c98af4c8a1c76c84f8465562d02bdd12
  - enabled: 1
    path: Assets/Scenes/Levels/Level33.unity
    guid: c91b5b1f746ea8f41b9774303587e969
  - enabled: 1
    path: Assets/Scenes/Levels/Level34.unity
    guid: 92955102c44e5184fbb9756dd66609e7
  - enabled: 1
    path: Assets/Scenes/Levels/Level35.unity
    guid: 1ccb58e954d2c34448e7afa101c24b7b
  - enabled: 1
    path: Assets/Scenes/Levels/Level36.unity
    guid: 219fd1775a152164f8c93063f4330f3f
  - enabled: 1
    path: Assets/Scenes/Levels/Level37.unity
    guid: 5e57246fcb9174a419112f7380757710
  - enabled: 1
    path: Assets/Scenes/Levels/Level38.unity
    guid: a3e558073c9e1514394ab6363a4aed29
  - enabled: 1
    path: Assets/Scenes/Levels/Level39.unity
    guid: 05f0b71e09a5c8e43b358598a8ff2076
  - enabled: 1
    path: Assets/Scenes/Levels/Level40.unity
    guid: 6e1c4b0265304b44389f3242b0d2bbe2
  - enabled: 1
    path: Assets/Scenes/Levels/Level41.unity
    guid: 14e6f30818f84b2419dbd358a6a54115
  - enabled: 1
    path: Assets/Scenes/Levels/Level42.unity
    guid: 074e666ae45e04944ae24f5e6baf4440
  - enabled: 1
    path: Assets/Scenes/Levels/Level43.unity
    guid: 35fd390059728384d9cc1dfd6b2d2990
  - enabled: 1
    path: Assets/Scenes/Levels/Level44.unity
    guid: b978d5870636b5c488b8b8130ed7281a
  - enabled: 1
    path: Assets/Scenes/Levels/Level45.unity
    guid: 5e1611a858af8384cb348b51b405f5d6
  - enabled: 1
    path: Assets/Scenes/Credits.unity
    guid: 4321062d55d52f540a6800d5db6da844
